com\alipay\api\response\AlipayAssetPointOrderCreateResponse.class
com\alipay\api\domain\CommodityPublicExtInfos.class
com\alipay\api\domain\AlipayAccountExrateRatequeryModel.class
com\alipay\api\domain\AlipayOpenPublicTemplateMessageIndustryModifyModel.class
com\alipay\api\request\AlipayPointBudgetGetRequest.class
com\alipay\api\domain\AlipayMarketingCampaignPrizeAmountQueryModel.class
com\alipay\api\response\AlipayMicropayOrderFreezepayurlGetResponse.class
com\alipay\api\domain\KoubeiMarketingDataActivityBillDownloadModel.class
com\alipay\api\domain\EquipmentBindInfo.class
com\alipay\api\domain\ValidDateInfo.class
com\alipay\api\AlipayMobilePublicMultiMediaClient.class
com\alipay\api\domain\AlipayMarketingCardQueryModel.class
com\alipay\api\response\AlipayMobileBeaconDeviceAddResponse.class
com\alipay\api\request\AlipayUserAccountFreezeGetRequest.class
com\alipay\api\domain\AlipayPcreditLoanApplyCreateModel.class
com\alipay\api\domain\LegalRepresentativeInfo.class
com\alipay\api\request\AlipayOpenPublicPartnerMenuQueryRequest.class
com\alipay\api\domain\DeliverAddress.class
com\alipay\api\request\AlipayEcoMycarParkingLotbarcodeCreateRequest.class
com\alipay\api\domain\KoubeiMarketingCampaignCrowdDetailQueryModel.class
com\alipay\api\domain\KoubeiMarketingCampaignActivityOfflineModel.class
com\alipay\api\response\KoubeiMarketingDataCustomtagDetailQueryResponse.class
com\alipay\api\response\AlipayOfflineMarketingVoucherModifyResponse.class
com\alipay\api\domain\AlipayEcoMycarParkingInformationUpdateModel.class
com\alipay\api\domain\ComplextMockModel.class
com\alipay\api\response\AlipayUserAccountFreezeGetResponse.class
com\alipay\api\AlipayConstants.class
com\alipay\api\domain\AlipayOpenPublicAccountResetModel.class
com\alipay\api\request\AntMerchantExpandEnterpriseApplyRequest.class
com\alipay\api\request\AlipayMobilePublicMessageCustomSendRequest.class
com\alipay\api\request\AlipayOfflineMarketShopBatchqueryRequest.class
com\alipay\api\response\AlipayMarketingCampaignDrawcampStatusUpdateResponse.class
com\alipay\api\domain\KoubeiMarketingCampaignCrowdDeleteModel.class
com\alipay\api\domain\KoubeiMemberDataExtitemUpdateModel.class
com\alipay\api\domain\PricingVO.class
com\alipay\api\request\AlipaySecurityRiskDetectRequest.class
com\alipay\api\request\AlipayPassFileAddRequest.class
com\alipay\api\domain\AlipayOpenPublicFollowListModel.class
com\alipay\api\domain\PeriodInfo.class
com\alipay\api\request\AlipayOfflineSaleleadsInfoAddRequest.class
com\alipay\api\domain\NewsfeedMediaLinkInfo.class
com\alipay\api\response\AlipayOfflineMarketShopApplyorderCancelResponse.class
com\alipay\api\response\AlipayOfflineMarketProductQuerydetailResponse.class
com\alipay\api\domain\ZhimaCreditScoreGetModel.class
com\alipay\api\domain\SimpleMockModel.class
com\xianzaishi\trade\pay\weixin\RefundReturnValue.class
com\alipay\api\response\AlipayMobilePublicMessagebatchPushResponse.class
com\alipay\api\response\AlipayOfflineMarketingVoucherUseResponse.class
com\alipay\api\domain\ZmWatchListExtendInfo.class
com\alipay\api\domain\AlipayOfflineSaleleadsClaimstatusModel.class
com\alipay\api\request\AlipayOfflineMaterialImageQueryRequest.class
com\alipay\api\request\AlipayMobileShakeUserQueryRequest.class
com\alipay\api\request\AlipayOpenServicemarketOrderItemConfirmRequest.class
com\alipay\api\request\ZhimaDataBatchFeedbackRequest.class
com\alipay\api\domain\AlipayEcoMycarParkingCarqrcodeCreateModel.class
com\alipay\api\domain\AlipayEcoMycarMerchantCommentSyncModel.class
com\alipay\api\response\AlipayOpenServicemarketCommodityShopOfflineResponse.class
com\alipay\api\response\AlipayMobileShakeUserQueryResponse.class
com\alipay\api\response\AlipayMobilePublicLabelUserDeleteResponse.class
com\alipay\api\request\AlipayMicropayOrderUnfreezeRequest.class
com\alipay\api\request\ZhimaCreditScoreGetRequest.class
com\alipay\api\response\AlipayMobileBksigntokenVerifyResponse.class
com\alipay\api\request\AlipayOfflineSaleleadsModifyRequest.class
com\alipay\api\domain\MicroPayOrderDetail.class
com\alipay\api\domain\AlipayMarketingCampaignPromocoreTriggerModel.class
com\alipay\api\response\AlipayMobilePublicShortlinkCreateResponse.class
com\alipay\api\request\AlipayOpenPublicInfoQueryRequest.class
com\alipay\api\response\AlipayMarketingCardUpdateResponse.class
com\alipay\api\response\AlipayOfflineMarketItemModifyResponse.class
com\alipay\api\request\KoubeiMarketingCampaignCrowdModifyRequest.class
com\alipay\api\domain\KoubeiMarketingCampaignCrowdCountModel.class
com\alipay\api\domain\AlipayMarketingCardOpenModel.class
com\alipay\api\request\AlipayOfflineMaterialImageUploadRequest.class
com\alipay\api\request\AlipayOpenPublicAccountCreateRequest.class
com\xianzaishi\trade\pay\weixin\WeiXinPayHttpsRequest.class
com\alipay\api\response\AlipayMarketingCampaignDiscountBudgetQueryResponse.class
com\alipay\api\domain\InsClaim.class
com\alipay\api\response\AlipayMarketingCampaignDrawcampQueryResponse.class
com\alipay\api\domain\CityFunction.class
com\alipay\api\request\AlipayUserMemberCardUpdateRequest.class
com\alipay\api\request\AlipayMobilePublicMessagebatchPushRequest.class
com\alipay\api\request\AlipayPromorulecenterRuleAnalyzeRequest.class
com\alipay\api\request\AlipayCommerceCityfacilitatorFunctionQueryRequest.class
com\alipay\api\domain\AlipaySecurityProdAntbucklerRainModel.class
com\alipay\api\response\KoubeiMarketingDataCustomreportDetailQueryResponse.class
com\alipay\api\response\AlipayEcoMycarParkingParkinglotinfoCreateResponse.class
com\alipay\api\response\AlipayMarketingCampaignDiscountBudgetCreateResponse.class
com\alipay\api\domain\AlipayTradePayModel.class
com\alipay\api\response\AlipayMobilePublicMenuGetResponse.class
com\alipay\api\domain\AlipayMarketingCardTemplateModifyModel.class
com\alipay\api\request\AlipayOpenPublicMenuQueryRequest.class
com\alipay\api\request\AlipayMobileBeaconDeviceModifyRequest.class
com\alipay\api\domain\AlipayOfflineMarketLeadsBatchqueryModel.class
com\alipay\api\domain\OpenApiRoyaltyDetailInfoPojo.class
com\alipay\api\domain\MerchantCard.class
com\alipay\api\response\AlipayCommerceMedicalInstcardCreateandpayResponse.class
com\alipay\api\domain\YLBPriceDetailInfo.class
com\alipay\api\response\KoubeiMemberBrandownerNameQueryResponse.class
com\alipay\api\response\AlipayMarketingCampaignDiscountWhitelistUpdateResponse.class
com\alipay\api\request\KoubeiMarketingToolPointsUpdateRequest.class
com\alipay\api\response\AlipayOpenPublicAccountResetResponse.class
com\alipay\api\response\AlipayOfflineMarketProductBatchqueryResponse.class
com\alipay\api\domain\MerchantScreenHit.class
com\alipay\api\domain\RoyaltyDetailInfos.class
com\alipay\api\domain\ChargeInstMode.class
com\alipay\api\request\AlipayMobilePublicLabelAddRequest.class
com\alipay\api\response\AlipayEcoMycarMaintainOrderstatusUpdateResponse.class
com\alipay\api\request\AlipayInsAutoCarSaveRequest.class
com\alipay\api\response\AlipayEbppPdeductSignAddResponse.class
com\alipay\api\response\AlipaySecurityProdAmlriskQueryResponse.class
com\alipay\api\request\AlipayMobilePublicQrcodeCreateRequest.class
com\alipay\api\response\AlipayAccountExrateAdviceAcceptResponse.class
com\alipay\api\request\AlipayAccountExrateAdviceAcceptRequest.class
com\alipay\api\internal\util\json\BufferErrorListener.class
com\alipay\api\internal\util\codec\Decoder.class
com\alipay\api\request\AlipayOfflineMarketShopAssignstaffRequest.class
com\alipay\api\domain\KoubeiMemberDataExtitemQueryModel.class
com\alipay\api\response\AlipayMicropayOrderGetResponse.class
com\alipay\api\request\AlipayZdatafrontDatatransferedSendRequest.class
com\alipay\api\domain\DataTag.class
com\alipay\api\domain\AlipayPassInstanceUpdateModel.class
com\alipay\api\request\AlipayUserFinanceinfoShareRequest.class
com\alipay\api\request\AlipayUserUserinfoShareRequest.class
com\alipay\api\request\AlipayMobileBeaconDeviceQueryRequest.class
com\alipay\api\response\AlipayAssetAccountGetResponse.class
com\alipay\api\request\AlipaySecurityProdFacerepoAddRequest.class
com\alipay\api\domain\TicketDetailInfo.class
com\alipay\api\domain\BenefitInfo.class
com\alipay\api\response\AlipayDataBillDownloadurlGetResponse.class
com\alipay\api\domain\AlipayCodeRecoResult.class
com\alipay\api\domain\AlipayMarketingCampaignPromocoreStatusUpdateModel.class
com\alipay\api\request\AlipayCommerceCityfacilitatorScriptQueryRequest.class
com\alipay\api\domain\ZhimaRiskDetail.class
com\alipay\api\domain\AlipayEcoMycarParkingCardidQueryModel.class
com\alipay\api\request\AlipayEcapiprodDrawndnPaymentscheduleGetRequest.class
com\alipay\api\domain\Retailer.class
com\alipay\api\domain\SupportFunction.class
com\alipay\api\response\AlipayPointOrderAddResponse.class
com\alipay\api\response\AlipayCommerceCityfacilitatorDepositConfirmResponse.class
com\alipay\api\domain\AlipayDataDataserviceCustomerLevelGetModel.class
com\alipay\api\response\AlipayCommerceCityfacilitatorFunctionQueryResponse.class
com\alipay\api\domain\DiscountDstCampPrizeModel.class
com\alipay\api\domain\OpenAuthTokenAppModel.class
com\alipay\api\response\MybankFinanceYulibaoCapitalPurchaseResponse.class
com\alipay\api\request\AlipayOfflineMarketLeadsBatchqueryRequest.class
com\alipay\api\domain\AlipayMarketingCampaignActivityOfflineCreateModel.class
com\alipay\api\response\AlipayOpenPublicContactFollowBatchqueryResponse.class
com\alipay\api\domain\AlipayTradeRefundModel.class
com\alipay\api\request\AlipayOpenPublicGisQueryRequest.class
com\alipay\api\request\AlipayAssetPointBalanceQueryRequest.class
com\alipay\api\domain\AlipayMarketingCdpRecommendQueryModel.class
com\alipay\api\response\AlipayFlashsalesStockSyncUpdateResponse.class
com\alipay\api\response\AlipayEcoMycarDataExternalQueryResponse.class
com\alipay\api\response\AlipayTradeRefundResponse.class
com\alipay\api\request\AlipayOpenPublicPartnerSubscribeSyncRequest.class
com\alipay\api\domain\StationDetailInfo.class
com\alipay\api\response\AlipayUserAccountGetResponse.class
com\alipay\api\response\AlipayUserUserinfoShareResponse.class
com\alipay\api\domain\AlipayMarketingCdpAdvertiseCreateModel.class
com\alipay\api\request\AlipayMarketingCampaignActivityOfflineCreateRequest.class
com\alipay\api\response\AlipayInsAutoCarSaveResponse.class
com\alipay\api\domain\AlipayCommerceCityfacilitatorScardcenterDepositConfirmModel.class
com\alipay\api\response\AlipayMemberCouponQuerylistResponse.class
com\alipay\api\response\AlipayCommerceCityfacilitatorDepositCancelResponse.class
com\alipay\api\domain\AlipayOpenPublicMenuAddModel.class
com\alipay\api\response\AlipayPointBudgetGetResponse.class
com\alipay\api\request\AlipayEcoMycarParkingParkinglotinfoCreateRequest.class
com\alipay\api\domain\AlipayEcoCplifeRepairRequestDispatchModel.class
com\xianzaishi\trade\pay\weixin\ReturnValue.class
com\alipay\api\response\KoubeiMarketingCampaignActivityModifyResponse.class
com\alipay\api\response\AlipayTrustUserZminfoPairGetResponse.class
com\alipay\api\request\AlipayOpenPublicMultimediaDownloadProxyRequest.class
com\alipay\api\request\AlipayEcoMycarTradeRefundRequest.class
com\alipay\api\domain\SendRule.class
com\alipay\api\response\AlipayOfflineMarketShopSummaryBatchqueryResponse.class
com\alipay\api\response\AlipayMobileBeaconDeviceQueryResponse.class
com\alipay\api\request\AlipayMarketingCdpAdvertiseQueryRequest.class
com\alipay\api\response\AlipayEcoMycarPromoTicketSyncResponse.class
com\alipay\api\request\MonitorHeartbeatSynRequest.class
com\alipay\api\request\AlipayOfflineSaleleadsInfoQuerybypageRequest.class
com\alipay\api\request\AlipayPassCodeVerifyRequest.class
com\alipay\api\request\AlipayMarketingCampaignPrizeAmountQueryRequest.class
com\alipay\api\request\AlipayAcquireRefundRequest.class
com\alipay\api\request\AlipayOfflineMarketingVoucherUseRequest.class
com\alipay\api\domain\QueryInstBillInfo.class
com\alipay\api\response\AlipayMobilePublicMenuUpdateResponse.class
com\alipay\api\domain\LendingRecords.class
com\alipay\api\request\AlipayTrustUserScoreGetRequest.class
com\alipay\api\domain\AlipayOpenPublicThirdCustomerServiceModel.class
com\alipay\api\response\AlipayOfflineProviderQuerystaffResponse.class
com\alipay\api\domain\AlipayOfflineProviderQuerystaffModel.class
com\alipay\api\response\AlipayOfflineMarketShopAlbumQueryResponse.class
com\alipay\api\domain\AlipayOfflineMarketingCloudacptItemQueryModel.class
com\alipay\api\domain\AlipayEcoMycarViolationCityPushModel.class
com\alipay\api\domain\MerchantMenber.class
com\alipay\api\domain\AlipayOpenPublicAccountQueryModel.class
com\alipay\api\domain\AccountRecord.class
com\alipay\api\request\AlipayCommerceEducateStudentinfoShareRequest.class
com\alipay\api\request\AlipayEcardEduPublicBindRequest.class
com\alipay\api\response\AlipayOpenPublicPartnerSubscribeSyncResponse.class
com\alipay\api\domain\ArrangementBaseVO.class
com\alipay\api\response\AlipayMobilePublicAccountQueryResponse.class
com\alipay\api\request\KoubeiMarketingCampaignActivityCreateRequest.class
com\alipay\api\response\AlipayTradeVendorpayDevicedataUploadResponse.class
com\alipay\api\domain\KoubeiMemberDataOauthQueryModel.class
com\alipay\api\domain\AlipayMarketingCampaignWhitelistUpdateModel.class
com\alipay\api\request\AlipayOfflineMarketItemModifyRequest.class
com\alipay\api\domain\VoucherTermInfo.class
com\alipay\api\domain\AlipayMarketingCardConsumeSyncModel.class
com\alipay\api\domain\TradeRecord.class
com\alipay\api\response\AlipayTradeCancelResponse.class
com\alipay\api\response\AlipayDataDataserviceCodeRecoResponse.class
com\alipay\api\domain\AlipayCommerceCityfacilitatorVoucherRefundModel.class
com\alipay\api\response\AlipayMobilePublicInfoQueryResponse.class
com\alipay\api\request\AlipayCommerceCityfacilitatorDepositQueryRequest.class
com\alipay\api\request\AlipayMpointprodBenefitDetailGetRequest.class
com\alipay\api\domain\AlipayOfflineMarketShopCreateModel.class
com\alipay\api\response\AlipayOpenPublicGisQueryResponse.class
com\alipay\api\domain\CodeInfo.class
com\alipay\api\domain\AlipayEcoMycarOrderSyncVerifyModel.class
com\alipay\api\request\AlipayOpenServicemarketCommodityShopOfflineRequest.class
com\alipay\api\domain\DiagnoseResult.class
com\alipay\api\response\AlipayMobilePublicContactFollowListResponse.class
com\alipay\api\response\AlipayEcapiprodDrawndnRepaymentrecordQueryResponse.class
com\alipay\api\request\AlipayEbppPdeductSignAddRequest.class
com\alipay\api\request\AlipayOpenPublicPartnerMenuOperateRequest.class
com\alipay\api\response\AlipayPcreditLoanRefundCreateResponse.class
com\alipay\api\request\AlipayMemberConsumeNotifyRequest.class
com\alipay\api\request\AlipayOpenServicemarketOrderItemCancelRequest.class
com\alipay\api\response\AlipayOfflineMarketShopAlbumDeleteResponse.class
com\alipay\api\request\KoubeiItemExtitemCreateRequest.class
com\alipay\api\domain\StudentInfo.class
com\alipay\api\response\KoubeiMarketingCampaignCrowdDeleteResponse.class
com\alipay\api\response\AlipayPassInstanceUpdateResponse.class
com\alipay\api\response\AlipayOfflineMarketMcommentQueryResponse.class
com\alipay\api\request\ZhimaMerchantTestPracticeRequest.class
com\alipay\api\AlipayMobilePublicMultiMediaClient$DefaultTrustManager.class
com\alipay\api\request\AlipayCommerceCityfacilitatorCityQueryRequest.class
com\alipay\api\response\AntMerchantExpandMapplyorderQueryResponse.class
com\alipay\api\domain\AlipayOpenServicemarketCommodityShopOfflineModel.class
com\alipay\api\request\KoubeiItemExtitemBatchqueryRequest.class
com\alipay\api\request\AlipayOfflineMarketShopApplyorderCancelRequest.class
com\alipay\api\domain\ExtItem.class
com\alipay\api\response\AlipayMobilePublicMessagePushResponse.class
com\alipay\api\AlipayResponse.class
com\alipay\api\request\AlipayPcreditLoanApplyCreateRequest.class
com\alipay\api\request\AlipayOpenPublicContactFollowBatchqueryRequest.class
com\alipay\api\request\AlipayMobilePublicLabelDeleteRequest.class
com\alipay\api\domain\AlipayChinareModelResult.class
com\alipay\api\response\AlipayCommerceCityfacilitatorVoucherQueryResponse.class
com\alipay\api\response\KoubeiMarketingDataCustomtagBatchqueryResponse.class
com\alipay\api\response\AlipayOpenPublicAccountQueryResponse.class
com\alipay\api\response\AlipayMobilePublicAccountResetResponse.class
com\alipay\api\domain\AlipayOfflineMarketItemCreateModel.class
com\alipay\config\AlipayConfigV2.class
com\alipay\api\domain\AlipayMarketingCampaignCertCreateModel.class
com\alipay\api\domain\AlipayZmScoreZrankResult.class
com\alipay\api\domain\AlipaySecurityProdAlipaySecurityProdTestModel.class
com\alipay\api\domain\ExtendParams.class
com\alipay\api\request\AlipayOfflineMarketReportGetRequest.class
com\alipay\api\request\AlipayMarketingCardUpdateRequest.class
com\alipay\api\domain\ShopSummaryQueryResponse.class
com\alipay\api\domain\AlipayOfflineMarketingCloudacptItemTestModel.class
com\alipay\api\domain\MybankFinanceYulibaoTransHistoryQueryModel.class
com\alipay\api\internal\util\AlipayLogger.class
com\alipay\api\response\AlipayUserFinanceinfoShareResponse.class
com\alipay\api\domain\TemplateCardLevelConfDTO.class
com\alipay\api\response\AlipayOfflineMarketApplyorderBatchqueryResponse.class
com\alipay\api\request\AlipaySecurityRiskHideDeviceidQueryRequest.class
com\alipay\api\request\KoubeiMarketingDataMessageDeliverRequest.class
com\alipay\api\domain\DataEnumValue.class
com\alipay\api\response\AlipayCommerceEducateStudentinfoShareResponse.class
com\alipay\api\request\KoubeiMarketingDataIndicatorQueryRequest.class
com\alipay\api\domain\AlipayPassTemplateUpdateModel.class
com\alipay\api\request\AlipayMarketingCampaignActivityOfflineTriggerRequest.class
com\alipay\api\domain\AlipayCommerceCityfacilitatorScardcenterDepositCancelModel.class
com\alipay\api\request\KoubeiMarketingCampaignCrowdBatchqueryRequest.class
com\alipay\api\response\AlipayOfflineSaleleadsModifyResponse.class
com\alipay\api\domain\InfoCode.class
com\alipay\api\response\AlipayPointOrderGetResponse.class
com\alipay\api\domain\StagedDiscountDstCampPrizeModel.class
com\alipay\api\request\KoubeiMemberBrandownerNameQueryRequest.class
com\alipay\api\response\AlipayMarketingCampaignCertCreateResponse.class
com\alipay\api\domain\AlipayOfflineMarketItemModifyModel.class
com\alipay\api\request\AlipayInsSceneApplicationQueryRequest.class
com\alipay\api\request\AlipayEbppBillPayRequest.class
com\alipay\api\request\AlipayOpenPublicMessageCustomSendRequest.class
com\alipay\api\request\AlipayMobilePublicAccountResetRequest.class
com\alipay\api\request\AlipayMarketingCampaignDiscountQueryRequest.class
com\alipay\api\domain\MybankFinanceYulibaoAccountQueryModel.class
com\alipay\api\response\AlipayOpenPublicLabelCreateResponse.class
com\alipay\api\domain\VoucherInfo.class
com\alipay\api\domain\AlipayMarketingCampaignDstcampOperateModel.class
com\alipay\api\response\AlipayOpenPublicAccountCreateResponse.class
com\alipay\api\request\AlipayEcapiprodDrawndnFeerecordQueryRequest.class
com\alipay\api\response\AlipayMobilePublicLabelUserQueryResponse.class
com\alipay\api\request\AlipayOfflineMarketApplyorderBatchqueryRequest.class
com\alipay\api\request\AlipayTradeCreateRequest.class
com\alipay\api\response\KoubeiMarketingCampaignRecruitShopQueryResponse.class
com\alipay\api\request\AlipayEcoMycarViolationInfoPushRequest.class
com\alipay\api\domain\BeaconTemplate.class
com\alipay\api\response\AlipayEcoCplifeBillSyncResponse.class
com\alipay\api\response\AlipayOfflineMarketShopAlbumCreateResponse.class
com\alipay\api\request\AlipayEcapiprodDrawndnLendingrecordQueryRequest.class
com\alipay\api\domain\Video.class
com\alipay\api\domain\InsPerson.class
com\alipay\api\domain\Template.class
com\alipay\api\response\AlipayOpenAuthTokenAppResponse.class
com\alipay\api\domain\AlipayOpenAppPackagetestModel.class
com\alipay\api\domain\AlipayOfflineMarketShopApplyorderCancelModel.class
com\alipay\api\request\AlipayTradePayRequest.class
com\alipay\api\AlipayMobilePublicMultiMediaDownloadRequest.class
com\alipay\api\domain\Condition.class
com\alipay\api\response\AlipayMicropayOrderConfirmpayurlGetResponse.class
com\alipay\api\domain\AlipayCommerceDataSendModel.class
com\alipay\api\request\AlipayOfflineSaleleadsClaimstatusRequest.class
com\alipay\api\domain\NewsfeedWithMeInfo.class
com\alipay\api\domain\CPBillSet.class
com\alipay\api\request\AlipayMobilePublicMenuUserQueryRequest.class
com\xianzaishi\trade\pay\weixin\GongZongHaoPayModel.class
com\alipay\api\domain\PersonnalBankAccountInfo.class
com\alipay\api\response\AlipayPassCodeVerifyResponse.class
com\alipay\api\response\AlipayMarketingCampaignDrawcampCreateResponse.class
com\alipay\api\request\AlipayTradeCancelRequest.class
com\alipay\api\domain\YLBTransDetailInfo.class
com\alipay\api\response\AlipayCommerceCityfacilitatorVoucherCancelResponse.class
com\alipay\api\domain\AlipayItemGoodsList.class
com\alipay\api\response\AlipayOfflineMarketShopAlbumUnbindResponse.class
com\alipay\api\domain\ArrangementInvolvedPartyQuerier.class
com\alipay\api\domain\ReduceToAmtDstCampPrizeModel.class
com\alipay\api\domain\AlipayCommerceCityfacilitatorVoucherBatchqueryModel.class
com\alipay\api\internal\util\json\JSONValidatingReader.class
com\alipay\api\domain\BeaconDeviceInfo.class
com\alipay\api\domain\AlipayEcoMycarParkingInformationCreateModel.class
com\alipay\api\request\AlipayOpenServicemarketOrderAcceptRequest.class
com\alipay\api\domain\AlipayMarketingCampaignDiscountBudgetCreateModel.class
com\alipay\api\domain\AlipayCommerceCityfacilitatorScardcenterScriptQueryModel.class
com\xianzaishi\trade\pay\ali\AlipayConfig.class
com\alipay\api\request\AlipayMappprodAccountBindingSyncRequest.class
com\alipay\api\response\AlipayTradeAppPayResponse.class
com\alipay\api\domain\AlipayTradeFastpayRefundQueryModel.class
com\alipay\api\request\AlipayTrustUserStandardVerifyGetRequest.class
com\alipay\api\request\AlipayOpenPublicLabelUserQueryRequest.class
com\alipay\api\request\AlipayMobilePublicContactFollowListRequest.class
com\alipay\api\response\AlipayAppTokenGetResponse.class
com\alipay\api\request\AlipayMarketingCampaignCertCreateRequest.class
com\alipay\api\response\KoubeiMarketingCampaignActivityOfflineResponse.class
com\alipay\api\request\AlipayUserContractGetRequest.class
com\alipay\api\domain\AlipayEcoCplifeBillSynchronizeModel.class
com\alipay\api\response\AlipayTrustUserAuthSendResponse.class
com\alipay\api\response\AlipayTradePayResponse.class
com\alipay\api\request\AlipayMarketingCampaignDrawcampCreateRequest.class
com\alipay\api\response\AlipayOfflineMarketShopCategoryQueryResponse.class
com\alipay\api\domain\Scene.class
com\alipay\api\request\AlipayUserTestRequest.class
com\alipay\api\request\AlipayTradeQueryRequest.class
com\alipay\api\request\KoubeiQualityTestCloudacptItemQueryRequest.class
com\alipay\api\domain\MerchantSaleLeadsQueryDTO.class
com\alipay\api\request\AlipaySecurityProdFacerepoSearchRequest.class
com\alipay\api\domain\KoubeiMarketingDataIndicatorQueryModel.class
com\alipay\api\response\AlipayMobileStdPublicMenuQueryResponse.class
com\alipay\api\response\AlipayZdataassetsMetadataResponse.class
com\alipay\api\domain\AlipayMarketingCardDeleteModel.class
com\alipay\api\internal\mapping\ApiField.class
com\alipay\api\response\KoubeiMarketingCampaignCrowdCountResponse.class
com\alipay\api\request\AlipayTrustUserTokenGetRequest.class
com\alipay\api\domain\AlipayMarketingCardUpdateModel.class
com\alipay\api\response\AlipayOpenPublicLabelQueryResponse.class
com\alipay\api\request\AlipayTradePrecreateRequest.class
com\alipay\api\request\AlipayMobilePublicMenuQueryRequest.class
com\alipay\api\request\AlipayEcoMycarPromoTicketPushRequest.class
com\alipay\api\response\AlipayAcquireRefundResponse.class
com\alipay\api\domain\FeeRecords.class
com\alipay\api\request\AlipayMobilePublicTemplateMessageQueryRequest.class
com\alipay\api\request\AlipayPassTemplateAddRequest.class
com\alipay\api\request\AlipayBossCsChannelQueryRequest.class
com\alipay\api\domain\AlipayOfflineSaleleadsInfoQuerybypageModel.class
com\alipay\api\domain\DrawndnVo.class
com\alipay\api\domain\AlipayTradeCloseModel.class
com\alipay\api\domain\ArrangementNoQuerier.class
com\alipay\api\response\AlipayOfflineMarketReportGetResponse.class
com\alipay\api\request\AlipayExscUserCurrentsignGetRequest.class
com\alipay\api\domain\AlipayOpenPublicMessageTotalSendModel.class
com\alipay\api\response\AlipayMsaasPromotionCpainfoCreateResponse.class
com\alipay\api\request\AlipayOpenPublicMenuCreateRequest.class
com\alipay\api\domain\TemplateStyleInfoDTO.class
com\alipay\api\request\AlipayDataDataserviceCodeRecoRequest.class
com\alipay\api\response\AlipayCommerceCityfacilitatorVoucherUploadResponse.class
com\alipay\api\domain\UnfreezeOrderDetail.class
com\alipay\api\domain\ReduceDstCampPrizeModel.class
com\alipay\api\response\AlipayExscUserFirstsignGetResponse.class
com\alipay\api\request\AlipayEcoCplifeRepairStatusUpdateRequest.class
com\alipay\util\AlipayNotify.class
com\alipay\api\domain\InsMktCouponCmpgnBaseDTO.class
com\alipay\api\response\ZhimaDataBatchFeedbackResponse.class
com\alipay\api\request\AlipayExscUserFirstsignGetRequest.class
com\alipay\api\response\AlipayEcapiprodDrawndnContractGetResponse.class
com\alipay\api\response\AlipayOpenPublicLabelDeleteResponse.class
com\alipay\api\request\AlipayMobilePublicAccountAddRequest.class
com\alipay\api\internal\util\WebUtils$DefaultTrustManager.class
com\alipay\api\request\AlipayEcapiprodDrawndnContractGetRequest.class
com\alipay\api\response\AlipayMobilePublicQrcodeCreateResponse.class
com\alipay\api\domain\ZhimaCreditWatchlistiiGetModel.class
com\alipay\api\response\AlipayOpenServicemarketOrderItemCompleteResponse.class
com\alipay\api\response\AlipayEcoMycarOrderRefundResponse.class
com\alipay\api\response\AlipayExscUserFirstfundinpourGetResponse.class
com\alipay\api\domain\AlipayEcoMycarParkingOutAddModel.class
com\alipay\api\response\AlipayOfflineMarketShopBatchqueryResponse.class
com\alipay\api\request\AlipayUserAccountSearchRequest.class
com\xianzaishi\trade\pay\ali\AliPay.class
com\alipay\api\response\KoubeiMarketingCampaignActivityBatchqueryResponse.class
com\alipay\api\response\AlipayAcquirePrecreateResponse.class
com\alipay\api\response\KoubeiMarketingToolPointsQueryResponse.class
com\alipay\api\response\AlipayEcoMycarDataserviceViolationinfoShareResponse.class
com\alipay\api\request\AlipayPcreditHuabeiPromoQueryRequest.class
com\alipay\api\domain\OuterShopDO.class
com\alipay\api\domain\ContactFollower.class
com\alipay\api\domain\AlipayOfflineMarketingCloudacptActivityQueryModel.class
com\alipay\api\response\AlipayOfflineMarketingVoucherCreateResponse.class
com\alipay\api\internal\util\json\JSONValidatingWriter.class
com\alipay\api\response\ZhimaCreditScoreGetResponse.class
com\alipay\api\request\AlipayMobileBksigntokenVerifyRequest.class
com\alipay\api\request\AlipayMarketingCardTemplateQueryRequest.class
com\alipay\api\request\AlipayOfflineMaterialImageModifyRequest.class
com\alipay\api\domain\PublishChannel.class
com\alipay\api\request\AlipayTrustUserRiskidentifyGetRequest.class
com\alipay\util\AlipayCore.class
com\alipay\api\request\AlipayDataBillDownloadurlGetRequest.class
com\xianzaishi\trade\pay\weixin\RefundModel.class
com\alipay\api\response\AlipayTradePrecreateResponse.class
com\alipay\api\domain\ButtonObject.class
com\alipay\api\domain\AlipayOfflineMarketingVoucherCreateModel.class
com\alipay\api\request\AlipayInsSceneApplicationApplyRequest.class
com\alipay\api\request\AlipayMarketingCardTemplateCreateRequest.class
com\alipay\api\response\AlipayAssetPointOrderQueryResponse.class
com\alipay\api\domain\InsCreateCertificateRequest.class
com\alipay\api\domain\PubChannelDTO.class
com\alipay\api\domain\OrderDetail.class
com\alipay\api\domain\OpenPromoPrize.class
com\alipay\api\domain\BaseInfo.class
com\alipay\api\response\AlipayOpenServicemarketOrderItemCancelResponse.class
com\alipay\api\request\AlipayMobileStdPublicExpressUserQueryRequest.class
com\alipay\api\request\AlipayMemberCardQueryRequest.class
com\alipay\api\request\AlipayOfflineProviderMonitorLogSyncRequest.class
com\alipay\api\response\AlipayMarketingCdpAdvertiseQueryResponse.class
com\alipay\api\domain\AlipayOpenServicemarketOrderItemCancelModel.class
com\alipay\api\response\AlipayMobileCodeCreateResponse.class
com\alipay\api\request\AlipayOfflineMarketMcommentQueryRequest.class
com\alipay\api\response\AlipayMarketingCardConsumeSyncResponse.class
com\alipay\api\domain\KoubeiMarketingDataCustomtagDetailQueryModel.class
com\alipay\api\request\AlipayAssetPointOrderQueryRequest.class
com\alipay\api\domain\AlipayOfflineMarketShopBatchqueryModel.class
com\xianzaishi\trade\pay\util\PayUtil.class
com\alipay\api\internal\util\json\StdoutStreamErrorListener.class
com\alipay\api\response\AlipayTradeFastpayRefundQueryResponse.class
com\alipay\api\request\AlipayTrustUserRiskSummaryGetRequest.class
com\alipay\api\domain\QueryInstBillDetail.class
com\alipay\api\response\KoubeiMarketingDataCustomreportSaveResponse.class
com\alipay\api\domain\Data.class
com\alipay\api\domain\KoubeiMarketingDataMemberReportBatchqueryModel.class
com\alipay\api\domain\EduAgeDemand.class
com\alipay\api\domain\AlipayInsSceneInsureModel.class
com\alipay\api\request\AlipayPassCodeAddRequest.class
com\alipay\api\request\AlipayOpenPublicThirdCustomerServiceRequest.class
com\alipay\api\domain\AlipayOpenAuthAlipayOpenAuthIndustryPlatformCreateTokenModel.class
com\alipay\api\response\AlipayZdatafrontDatatransferedSendResponse.class
com\alipay\api\request\KoubeiItemExtitemCategoryQueryRequest.class
com\alipay\api\response\AlipayOfflineMarketItemCreateResponse.class
com\alipay\api\response\AlipayCommerceTransportOfflinepayUserblacklistQueryResponse.class
com\alipay\api\request\MybankFinanceYulibaoPriceQueryRequest.class
com\alipay\api\request\AlipayMobileRecommendGetRequest.class
com\alipay\api\domain\AccountFreeze.class
com\alipay\api\response\MybankFinanceYulibaoCapitalRansomResponse.class
com\alipay\api\response\AlipayUserContractGetResponse.class
com\alipay\api\request\AlipayMobilePublicAccountDeleteRequest.class
com\alipay\api\internal\util\WebUtils$1.class
com\alipay\api\domain\AlipayOpenAuthIndustryPlatformQueryRequestModel.class
com\alipay\api\request\AlipayOperatorMobileBindRequest.class
com\alipay\api\request\AlipayEcoMycarParkingExitinfoSyncRequest.class
com\alipay\api\domain\AlipayAccount.class
com\alipay\api\domain\KoubeiMarketingCampaignCrowdModifyModel.class
com\alipay\api\response\AlipaySecurityRiskRainscoreQueryResponse.class
com\alipay\api\domain\InsMktCouponBaseDTO.class
com\alipay\api\request\AlipayOfflineMarketShopAlbumModifyRequest.class
com\alipay\api\response\AlipayMarketingCampaignDrawcampTriggerResponse.class
com\alipay\api\response\AlipayMicropayOrderDirectPayResponse.class
com\alipay\api\request\AlipayMobilePublicMessageLabelSendRequest.class
com\alipay\api\request\AlipayMobilePublicMessageTotalSendRequest.class
com\alipay\api\response\AlipayPlatformUseridGetResponse.class
com\alipay\api\domain\UseRuleInfo.class
com\alipay\api\response\KoubeiMarketingDataCustomreportDeleteResponse.class
com\alipay\api\response\AlipayMarketingCardQueryResponse.class
com\alipay\api\request\KoubeiMarketingCampaignTagsQueryRequest.class
com\alipay\api\domain\ArticleParagraph.class
com\alipay\api\domain\ShopCategoryConfigInfo.class
com\alipay\api\request\AlipayEcoMycarDataExternalSendRequest.class
com\alipay\api\domain\KoubeiMarketingToolPointsQueryModel.class
com\alipay\api\response\MonitorHeartbeatSynResponse.class
com\alipay\api\response\KoubeiItemExtitemCreateResponse.class
com\alipay\api\request\AlipayTradeVendorpayDevicedataUploadRequest.class
com\alipay\api\domain\AlipayOfflineMarketApplyorderBatchqueryModel.class
com\alipay\api\domain\AlipayCommerceCityfacilitatorScardcenterTicketUploadModel.class
com\alipay\api\response\AlipayOfflineMaterialImageModifyResponse.class
com\alipay\api\domain\BusinessBankAccountInfo.class
com\alipay\api\request\AlipayMobileBeaconDeviceDeleteRequest.class
com\alipay\api\response\AlipayPassCodeAddResponse.class
com\alipay\api\domain\AlipayOpenPublicShortlinkCreateModel.class
com\alipay\api\request\AlipayPassInstanceAddRequest.class
com\alipay\api\response\AlipayOfflineSaleleadsInfoAddResponse.class
com\alipay\api\response\AlipayMemberConsumeNotifyResponse.class
com\alipay\api\request\KoubeiItemExtitemExistedQueryRequest.class
com\alipay\api\AlipayUploadRequest.class
com\alipay\api\request\AlipayOfflineMarketShopAlbumQueryRequest.class
com\alipay\api\response\AlipayEcoMycarViolationInfoPushResponse.class
com\alipay\api\domain\Picture.class
com\alipay\api\response\KoubeiMarketingCampaignCrowdDetailQueryResponse.class
com\alipay\api\domain\AlipayOfflineProviderStaffUpdateModel.class
com\alipay\api\domain\AlipayOpenPublicLabelUpdateModel.class
com\alipay\api\domain\AdviceVO.class
com\alipay\api\response\AlipayMobilePublicAccountDeleteResponse.class
com\alipay\api\response\AlipayMsaasMediarecogVoiceMediaaudioUploadResponse.class
com\alipay\api\response\AlipayOfflineMarketingVoucherCodeUploadResponse.class
com\alipay\api\internal\util\XmlUtils.class
com\alipay\api\domain\AlipayOpenPublicUserQueryModel.class
com\alipay\api\internal\util\AlipayHashMap.class
com\alipay\api\domain\AlipayOpenPublicTemplateMessageGetModel.class
com\alipay\api\response\AlipayMobilePublicTemplateMessageModifyResponse.class
com\alipay\api\response\AlipaySystemOauthTokenResponse.class
com\alipay\api\response\AlipayOpenServicemarketOrderAcceptResponse.class
com\alipay\api\internal\util\codec\Base64.class
com\alipay\api\domain\AlipayOpenAuthTokenAppQueryModel.class
com\alipay\api\domain\AlipayEcoMycarParkingInAddModel.class
com\alipay\api\response\AlipayBossCsChannelQueryResponse.class
com\alipay\api\request\AlipayCommerceTransportOfflinepayUserblacklistQueryRequest.class
com\alipay\api\request\AlipaySecurityRiskRainscoreQueryRequest.class
com\alipay\api\request\AlipayMarketingCampaignDrawcampStatusUpdateRequest.class
com\alipay\api\response\AlipayOfflineSaleleadsClaimstatusResponse.class
com\alipay\api\domain\AlipayOfflinePayMasterKey.class
com\alipay\api\response\AlipayOfflineMarketingVoucherOfflineResponse.class
com\alipay\api\response\KoubeiItemExtitemCategoryQueryResponse.class
com\alipay\api\request\AlipayEcoMycarOrderRefundRequest.class
com\alipay\api\domain\EduWorkAddress.class
com\alipay\api\response\AlipayOfflineProviderMonitorLogSyncResponse.class
com\alipay\api\response\AlipayEcoMycarPromoVoucherVerifyResponse.class
com\alipay\api\request\AlipayMobilePublicAccountQueryRequest.class
com\alipay\api\response\AlipayAcquireCancelResponse.class
com\alipay\api\request\AlipayOpenPublicMessageTotalSendRequest.class
com\alipay\api\request\AlipayAccountExrateAllclientrateQueryRequest.class
com\alipay\api\domain\AlipayOfflineMarketProductBatchqueryModel.class
com\alipay\api\request\AlipayMobilePublicMenuUpdateRequest.class
com\alipay\api\domain\AlipayCommerceMedicalCreateandpayModel.class
com\alipay\api\response\AlipayEcoMycarParkingExitinfoSyncResponse.class
com\alipay\api\request\AlipayMobileStdPublicFollowListRequest.class
com\alipay\api\request\KoubeiMarketingDataCustomtagSaveRequest.class
com\alipay\api\domain\AlipayItemVoucherTemplete.class
com\alipay\api\response\AlipayOpenPublicMenuModifyResponse.class
com\alipay\api\domain\Filter.class
com\alipay\api\domain\AlipayDataItemVoucherTemplete.class
com\alipay\api\request\AlipayPointOrderGetRequest.class
com\alipay\api\request\AlipayMarketingCampaignDrawcampWhitelistCreateRequest.class
com\alipay\api\domain\SinglePayDetail.class
com\alipay\api\response\AlipayMobileBeaconDeviceModifyResponse.class
com\alipay\api\request\AlipayMobilePublicMenuAddRequest.class
com\alipay\api\response\AlipayMobilePublicMenuQueryResponse.class
com\alipay\api\domain\TemplateBenefitInfoDTO.class
com\alipay\api\AlipayParser.class
com\alipay\api\request\AlipayFlashsalesStockSyncUpdateRequest.class
com\alipay\api\response\AlipayPassTplContentUpdateResponse.class
com\alipay\api\request\AlipayEcoCplifeUseridentityStatusUpdateRequest.class
com\alipay\api\request\MybankFinanceYulibaoCapitalRansomRequest.class
com\alipay\api\response\AlipayPointBalanceGetResponse.class
com\alipay\api\request\AlipayMobilePublicFollowListRequest.class
com\alipay\api\response\AlipayAcquireQueryResponse.class
com\alipay\api\request\AlipayMobileDeviceinfoDynamicinfoAddRequest.class
com\alipay\api\DefaultAlipayClient.class
com\alipay\api\response\KoubeiMarketingCampaignActivityCreateResponse.class
com\alipay\api\request\AlipayTradeRefundRequest.class
com\alipay\api\request\AlipayEbppBillBatchPayurlGetRequest.class
com\alipay\api\domain\OpenPromoPrizeDimension.class
com\alipay\api\domain\MedicalHospitalDoctorInfo.class
com\alipay\api\domain\AlipayOpenPublicPartnerMenuQueryModel.class
com\alipay\api\response\KoubeiItemExtitemBrandQueryResponse.class
com\alipay\api\request\AlipayExscUserFirstfundinpourGetRequest.class
com\alipay\api\domain\AlipayOpenServicemarketOrderItemCompleteModel.class
com\alipay\api\domain\KoubeiMarketingCampaignActivityCreateModel.class
com\alipay\api\request\AlipayAssetAccountBindRequest.class
com\alipay\api\internal\parser\json\JsonConverter$1.class
com\alipay\api\request\KoubeiMarketingDataCustomreportDetailQueryRequest.class
com\alipay\api\response\MybankFinanceYulibaoAccountQueryResponse.class
com\alipay\api\domain\AlipayMarketingCampaignDstcampUpdatestatusModel.class
com\alipay\api\domain\OpenActivity.class
com\alipay\api\request\AlipayOfflineMarketShopAlbumCreateRequest.class
com\alipay\api\request\AlipayMicropayOrderFreezeRequest.class
com\alipay\api\request\AlipayOfflineMarketShopModifyRequest.class
com\alipay\api\response\AlipayTradeWapPayResponse.class
com\alipay\api\domain\BenefitInfoDetail.class
com\alipay\api\domain\ExRefRateInfoVO.class
com\alipay\api\request\AlipayOfflineMarketShopAlbumBindRequest.class
com\alipay\api\response\AlipayCommerceCityfacilitatorVoucherBatchqueryResponse.class
com\alipay\api\request\KoubeiMarketingDataSmartactivityConfigRequest.class
com\alipay\api\domain\AlipayOpenPublicMessageCustomSendModel.class
com\alipay\api\domain\AlipayAccountExrateAdviceAcceptModel.class
com\alipay\api\response\AlipayCommerceMedicalInstcardBindResponse.class
com\alipay\api\domain\AlipayOpenPublicPartnerSubscribeSyncModel.class
com\alipay\api\domain\AlipayOfflineMarketMcommentQueryModel.class
com\alipay\api\request\AlipayTrustUserZminfoPairGetRequest.class
com\alipay\api\response\AlipayMobilePublicLabelAddResponse.class
com\alipay\api\request\AlipaySecurityProdAlipaySecurityProdTestRequest.class
com\alipay\api\domain\AlipayOpenPublicParModel.class
com\alipay\api\request\AlipayOfflineMarketShopQuerydetailRequest.class
com\alipay\api\response\AlipayOfflineMarketProductUsedetailResponse.class
com\alipay\api\internal\util\RequestParametersHolder.class
com\alipay\api\request\AlipayOfflineMarketShopSummaryBatchqueryRequest.class
com\alipay\api\response\AlipayInsSceneApplicationApplyResponse.class
com\alipay\api\domain\AlipayMarketingCampaignPromocoreQueryModel.class
com\alipay\api\request\AlipayCommerceCityfacilitatorStationQueryRequest.class
com\alipay\api\domain\PublicBindAccount.class
com\alipay\api\AlipayApiException.class
com\alipay\api\request\AlipayOpenAuthTokenAppQueryRequest.class
com\alipay\api\request\AlipayMicropayOrderFreezepayurlGetRequest.class
com\alipay\api\response\ZhimaCreditWatchlistiiGetResponse.class
com\alipay\api\domain\AlipayOfflineProviderOpenUseractionModel.class
com\alipay\api\request\AlipayCommerceCityfacilitatorDepositConfirmRequest.class
com\alipay\api\internal\util\StringUtils.class
com\alipay\api\domain\RecruitTool.class
com\alipay\api\response\AlipayOpenPublicInfoQueryResponse.class
com\alipay\api\domain\KoubeiMarketingCampaignItemIsexistedModel.class
com\alipay\api\request\AlipayMobilePublicGisGetRequest.class
com\alipay\api\response\AlipaySecurityRiskDetectResponse.class
com\alipay\api\domain\BusinessLicenceInfo.class
com\alipay\api\domain\Keyword.class
com\xianzaishi\trade\pay\weixin\UnifiedorderModel.class
com\alipay\api\request\AlipayAppTokenGetRequest.class
com\alipay\api\request\AlipayMobilePublicTemplateMessageModifyRequest.class
com\alipay\api\domain\OldComplextMockModel.class
com\alipay\api\domain\SubButton.class
com\alipay\api\request\KoubeiMarketingCampaignCrowdCreateRequest.class
com\alipay\api\internal\parser\xml\XmlConverter.class
com\alipay\api\request\AlipayPassInstanceUpdateRequest.class
com\alipay\api\request\AlipayCommerceCityfacilitatorVoucherQueryRequest.class
com\alipay\api\domain\AlipayItemSalesRule.class
com\alipay\api\request\KoubeiItemExtitemBrandQueryRequest.class
com\alipay\api\request\AlipayAcquirePrecreateRequest.class
com\alipay\api\request\AlipayOpenPublicMessageLabelSendRequest.class
com\alipay\api\request\AlipayOpenPublicLifeAccountCreateRequest.class
com\alipay\api\request\AlipayOpenPublicLabelModifyRequest.class
com\alipay\api\domain\AlipayEcoMycarCarlibInfoPushModel.class
com\alipay\api\domain\AlipayMarketingCampaignWhitelistQueryModel.class
com\alipay\api\domain\VoucherDetail.class
com\alipay\api\request\AlipayEcoMycarParkingEnterinfoSyncRequest.class
com\alipay\api\domain\OperatorInfo.class
com\alipay\api\request\AntMerchantExpandImageUploadRequest.class
com\alipay\api\request\AlipayMobilePublicLabelQueryRequest.class
com\alipay\api\request\AlipayMarketingCardConsumeSyncRequest.class
com\alipay\api\request\AlipayOpenServicemarketOrderQueryRequest.class
com\alipay\api\domain\EduStudentInfoShareResult.class
com\alipay\api\domain\KoubeiMarketingDataCustomtagSaveModel.class
com\alipay\api\response\AlipayOpenPublicLifeMsgSendResponse.class
com\alipay\api\response\KoubeiMemberRetailerQueryResponse.class
com\alipay\api\response\ZhimaAuthInfoAuthqueryResponse.class
com\alipay\api\response\AlipayAcquireCloseResponse.class
com\alipay\api\request\AlipayCommerceCityfacilitatorVoucherGenerateRequest.class
com\alipay\api\domain\Voucher.class
com\alipay\api\response\AlipayTrustUserReportGetResponse.class
com\alipay\api\response\AlipayTrustUserRiskidentifyGetResponse.class
com\alipay\api\request\AlipaySecurityInfoAnalysisRequest.class
com\alipay\api\response\AlipayMarketingCampaignActivityOfflineCreateResponse.class
com\alipay\api\request\AntMerchantExpandPersonalApplyRequest.class
com\alipay\api\domain\Text.class
com\alipay\api\response\AlipayPassTplContentAddResponse.class
com\alipay\api\internal\util\StreamUtil.class
com\alipay\api\domain\KoubeiMarketingCampaignCrowdPageQueryModel.class
com\alipay\api\domain\AlipayUserDetail.class
com\alipay\api\request\AlipayEcoCplifeBillBatchUploadRequest.class
com\alipay\api\response\AlipayOfflineProviderShopactionRecordResponse.class
com\alipay\api\request\AlipayOpenPublicLabelUserDeleteRequest.class
com\alipay\api\request\AlipayOfflineMarketingVoucherModifyRequest.class
com\alipay\api\domain\QRcode.class
com\alipay\api\internal\util\codec\EncoderException.class
com\alipay\api\AlipayClient.class
com\alipay\api\domain\AlipayOpenServicemarketOrderItemConfirmModel.class
com\alipay\api\request\AlipayAssetAccountGetRequest.class
com\alipay\api\response\AlipayDataDataserviceSdfsdfResponse.class
com\alipay\api\domain\AlipayOfflineSaleleadsModifyModel.class
com\alipay\api\response\KoubeiMarketingDataCustomreportQueryResponse.class
com\alipay\api\domain\DiscountRateModel.class
com\alipay\api\request\AlipayMarketingCampaignDiscountBudgetQueryRequest.class
com\alipay\api\domain\AlipayDataDataexchangeSfasdfModel.class
com\alipay\api\request\AlipaySystemOauthTokenRequest.class
com\alipay\api\request\AlipayTradeOrderSettleRequest.class
com\alipay\api\domain\InsObject.class
com\alipay\api\request\AlipayOfflineProviderQuerystaffRequest.class
com\alipay\api\request\AlipayOpenAuthIndustryPlatformCreateTokenRequest.class
com\alipay\api\request\KoubeiMarketingToolPointsQueryRequest.class
com\alipay\api\ResponseEncryptItem.class
com\alipay\api\domain\MerchantInstConfig.class
com\alipay\api\domain\AlipayMarketingCampaignDiscountBudgetAppendModel.class
com\alipay\api\domain\AlipayOfflineSaleleadsInfoAddModel.class
com\alipay\api\domain\VoucherUserExternalTradeInfo.class
com\alipay\api\request\KoubeiMarketingCampaignCrowdCountRequest.class
com\alipay\api\domain\AlipaySecurityRiskAmlriskModel.class
com\alipay\api\request\AlipayCommerceMedicalInstcardBindRequest.class
com\alipay\api\response\AlipayCommerceCityfacilitatorCityQueryResponse.class
com\alipay\api\response\AlipayTradeOrderSettleResponse.class
com\alipay\api\domain\OpenPromoBudget.class
com\alipay\api\domain\AlipayItemAuditRule.class
com\alipay\api\response\AlipayEbppPdeductBillPayStatusResponse.class
com\alipay\api\response\AlipayMarketingCampaignPrizeAmountQueryResponse.class
com\alipay\api\response\AlipayMarketingCampaignDrawcampUpdateResponse.class
com\alipay\api\response\AlipayMobilePublicMessageLabelSendResponse.class
com\alipay\api\response\KoubeiMarketingDataActivityBillDownloadResponse.class
com\alipay\api\response\AlipayOpenServicemarketCommodityShopOnlineResponse.class
com\alipay\api\response\AlipayEbppBillGetResponse.class
com\alipay\api\request\AlipayMobilePublicMockListsmlistApiRequest.class
com\alipay\api\domain\AlipayOfflineSaleleadsQuerybyidsModel.class
com\alipay\api\domain\MedicalHospitalReportList.class
com\alipay\api\response\AlipayTransferThirdpartyBillCreateResponse.class
com\alipay\api\request\AlipayMobilePublicLabelUserQueryRequest.class
com\alipay\api\request\AlipayMarketingCampaignDiscountBudgetCreateRequest.class
com\alipay\api\request\AlipayOfflineProviderUseractionRecordRequest.class
com\alipay\api\request\KoubeiMarketingDataActivityBillDownloadRequest.class
com\alipay\api\request\KoubeiMarketingCampaignActivityQueryRequest.class
com\alipay\api\domain\GoodsDetail.class
com\alipay\api\request\AlipayOpenAppCodetesttestRequest.class
com\alipay\api\response\AlipayOfflineMaterialImageDownloadResponse.class
com\alipay\api\response\AlipaySecurityProdFacerepoAddResponse.class
com\alipay\api\domain\KoubeiMarketingDataSmartactivityForecastModel.class
com\alipay\api\domain\AlipayOfflineMarketingCloudacptCheckresultSubmitModel.class
com\alipay\api\request\AlipayUserAccountUseridBatchqueryRequest.class
com\alipay\api\response\AlipayEbppPdeductSignQueryResponse.class
com\alipay\api\domain\AlipayOfflineTrade.class
com\alipay\api\response\AlipayEbppBillSearchResponse.class
com\alipay\api\response\AlipayOfflineMarketShopModifyResponse.class
com\alipay\api\response\KoubeiQualityTestCloudacptBatchQueryResponse.class
com\alipay\api\response\AlipayMobileBeaconMessageSendResponse.class
com\alipay\api\request\AlipayOfflineMarketShopPublicUnbindRequest.class
com\alipay\api\response\AlipayUserTradeSearchResponse.class
com\alipay\api\response\ZhimaMerchantTestPracticeResponse.class
com\alipay\api\response\AlipayEcoMycarParkingCardbarcodeCreateResponse.class
com\alipay\api\domain\AlipayEcoMycarDataserviceViolationOwnershareModel.class
com\alipay\api\response\AlipayTrustUserRiskSummaryGetResponse.class
com\alipay\api\response\AlipayPassInstanceAddResponse.class
com\alipay\api\response\AlipayMobilePublicTemplateMessageGetResponse.class
com\alipay\api\domain\BatchFundItemAOPModel.class
com\alipay\api\request\AlipayEcoMycarOrderStatusQueryRequest.class
com\alipay\api\domain\AlipayDataItemSalesRule.class
com\alipay\api\response\AlipayMobilePublicFollowListResponse.class
com\alipay\api\response\AlipayMarketingCampaignDiscountWhitelistQueryResponse.class
com\alipay\api\response\AlipayOpenPublicTemplateMessageGetResponse.class
com\alipay\api\response\AlipayEcapiprodCreditGetResponse.class
com\alipay\api\request\KoubeiMarketingCampaignCrowdDetailQueryRequest.class
com\alipay\api\domain\AlipayOpenPublicAccountDeleteModel.class
com\alipay\api\response\AlipayEcoMycarDataserviceMaintainvehicleShareResponse.class
com\alipay\api\request\AlipayMicropayOrderGetRequest.class
com\alipay\api\response\AlipayEcoMycarOrderStatusQueryResponse.class
com\alipay\api\internal\util\json\JSONErrorListener.class
com\alipay\api\request\AlipayEbppPdeductBillPayStatusRequest.class
com\alipay\api\domain\ShopEquipmentBindInfo.class
com\alipay\api\request\AlipayPcreditLoanRefundCreateRequest.class
com\alipay\api\domain\KoubeiMarketingCampaignActivityModifyModel.class
com\alipay\api\request\AlipayOpenServicemarketOrderRejectRequest.class
com\alipay\api\domain\LabelFilter.class
com\alipay\api\domain\ForbbidenTime.class
com\alipay\api\response\KoubeiMarketingCampaignActivityQueryResponse.class
com\alipay\api\domain\AlipayEcoCplifeBillBatchUploadModel.class
com\alipay\api\request\AlipayEcoMycarDataserviceMaintainvehicleShareRequest.class
com\alipay\api\request\AlipayEbppBillAddRequest.class
com\alipay\api\response\AlipaySecurityProdAlipaySecurityProdTestResponse.class
com\alipay\api\domain\AlipayInsSceneApplicationQueryModel.class
com\alipay\api\domain\AlipayTradeCreateModel.class
com\alipay\api\response\AlipayOpenServicemarketOrderItemConfirmResponse.class
com\alipay\api\response\AlipayOpenPublicAccountDeleteResponse.class
com\alipay\api\domain\GradeDiscountPoint.class
com\alipay\api\response\AlipayOpenServicemarketOrderQueryResponse.class
com\alipay\api\response\AlipayMobilePublicAccountAddResponse.class
com\alipay\api\domain\AlipayCommerceCityfacilitatorScardcenterTicketConfirmModel.class
com\alipay\api\request\KoubeiMarketingToolPrizesendAuthRequest.class
com\alipay\api\response\AlipayOfflineSaleleadsQuerybyidsResponse.class
com\alipay\api\request\AlipayTrustUserAuthSendRequest.class
com\alipay\api\domain\SingleDstCampPrizeModel.class
com\alipay\api\request\AlipayOpenPublicLifeMsgSendRequest.class
com\alipay\api\domain\OpenPromoCamp.class
com\alipay\api\domain\DisplayConfig.class
com\alipay\api\domain\ReduceToDiscountDstCampPrizeModel.class
com\alipay\api\response\AlipayPcreditLoanApplyCreateResponse.class
com\alipay\api\request\KoubeiMarketingDataSmartactivityForecastRequest.class
com\alipay\api\internal\util\codec\BinaryDecoder.class
com\alipay\api\domain\AlipayEcoMycarPromoTicketSyncModel.class
com\alipay\api\domain\AlipayOfflineMarketingVoucherStatusQueryModel.class
com\alipay\api\domain\AlipayMarketingCardTemplateQueryModel.class
com\alipay\api\request\KoubeiMarketingDataCustomtagDeleteRequest.class
com\alipay\api\response\AlipayMobileRecommendGetResponse.class
com\alipay\api\request\AlipayMobilePublicMenuUserUpdateRequest.class
com\alipay\api\internal\util\RequestCheckUtils.class
com\alipay\api\domain\AlipayCommerceTransportOfflinepayUserblacklistQueryModel.class
com\alipay\api\request\AlipayBossProdArrangementOfflineQueryRequest.class
com\alipay\api\response\KoubeiMarketingToolPrizesendAuthResponse.class
com\alipay\api\internal\mapping\Reader.class
com\alipay\api\response\AlipayDataDataserviceUserlevelZrankGetResponse.class
com\alipay\api\domain\CardTypeVO.class
com\alipay\api\response\AlipayOfflineProviderUseractionRecordResponse.class
com\alipay\api\request\KoubeiMarketingDataCustomtagDetailQueryRequest.class
com\alipay\api\response\AlipayEbppBillPayResponse.class
com\alipay\api\request\AlipayMobilePublicMessagespecifyPushRequest.class
com\alipay\api\response\AlipaySecurityInfoAnalysisResponse.class
com\alipay\api\internal\util\codec\Encoder.class
com\alipay\api\response\AlipaySecurityProdFacerepoSearchResponse.class
com\alipay\api\request\KoubeiMarketingDataSmartmanagementDiagnoseRequest.class
com\alipay\api\domain\ContactPersonInfo.class
com\alipay\api\domain\ArrangementBaseSelector.class
com\alipay\api\domain\AlipayOfflineProviderEquipmentAuthQuerybypageModel.class
com\alipay\api\response\AlipayEcoCplifeUseridentityStatusUpdateResponse.class
com\alipay\api\response\AlipayEcapiprodDrawndnPaymentscheduleGetResponse.class
com\alipay\api\request\AlipayTradeCloseRequest.class
com\alipay\api\response\AlipayOperatorMobileBindResponse.class
com\alipay\api\domain\DishTag.class
com\alipay\api\domain\AlipayCommerceCityfacilitatorScardcenterDepositQueryModel.class
com\alipay\api\request\AntMerchantExpandMapplyorderQueryRequest.class
com\alipay\api\request\AlipayTrustUserReportGetRequest.class
com\alipay\api\domain\AlipayTradeOrderMobilepayModel.class
com\alipay\api\response\AlipayCommerceTransportOfflinepayRecordVerifyResponse.class
com\alipay\api\domain\KoubeiMemberDataExtitemCreateModel.class
com\alipay\api\domain\KoubeiMarketingCampaignActivityBatchqueryModel.class
com\alipay\api\response\AlipayMarketingCardTemplateModifyResponse.class
com\alipay\api\request\AlipayMobilePublicInfoModifyRequest.class
com\alipay\api\domain\TemplateOpenCardConfDTO.class
com\alipay\api\response\AlipayMobilePublicMessageSingleSendResponse.class
com\alipay\api\request\AlipayEcoMycarParkingCardbarcodeCreateRequest.class
com\alipay\api\response\AlipayEcoMycarParkingEnterinfoSyncResponse.class
com\alipay\api\request\AlipayAccountExrateRatequeryRequest.class
com\alipay\api\domain\AlipayOfflineMarketingVoucherUseModel.class
com\alipay\api\request\KoubeiMarketingCampaignCrowdDeleteRequest.class
com\alipay\api\request\AlipayMobileBeaconMessageSendRequest.class
com\alipay\api\request\AlipayMobileCodeQueryRequest.class
com\alipay\api\request\AlipayOpenAuthTokenAppRequest.class
com\alipay\api\domain\InsPolicy.class
com\alipay\api\domain\AlipayTradeAppPayModel.class
com\alipay\api\domain\AlipaySecurityProdFacerepoInsertModel.class
com\alipay\api\domain\AlipayEcoCplifeUseridentityStatusUpdateModel.class
com\alipay\api\response\AlipayMicropayOrderFreezeResponse.class
com\alipay\api\domain\AlipayOpenServicemarketOrderAcceptModel.class
com\alipay\api\request\AlipayPassTplContentAddRequest.class
com\alipay\api\request\AlipayZdatafrontDatatransferedFileuploadRequest.class
com\alipay\api\response\AlipayCommerceDataSendResponse.class
com\alipay\api\response\AlipayExscUserCurrentsignGetResponse.class
com\alipay\api\response\AlipayMarketingCampaignDrawcampWhitelistCreateResponse.class
com\alipay\api\domain\MpPrizeInfoModel.class
com\xianzaishi\trade\pay\weixin\CallbackModel.class
com\alipay\api\request\AlipayOpenPublicInfoModifyRequest.class
com\alipay\api\request\AlipayUserGetRequest.class
com\alipay\api\domain\KoubeiMarketingDataCustomreportBatchqueryModel.class
com\alipay\api\domain\AlipayTradePrecreateModel.class
com\alipay\api\request\KoubeiItemExtitemQueryRequest.class
com\alipay\api\domain\TradeFundBill.class
com\alipay\api\domain\CampDetail.class
com\alipay\api\domain\AlipayTradeCancelModel.class
com\alipay\api\response\AlipayTrustUserStandardVerifyGetResponse.class
com\alipay\api\domain\AlipayDataItemGoodsList.class
com\alipay\api\request\KoubeiMemberRetailerQueryRequest.class
com\alipay\api\request\AlipayEcoMycarDataExternalQueryRequest.class
com\alipay\api\domain\AlipayDataDataserviceCodeRecoModel.class
com\alipay\api\response\AlipayEbppMerchantConfigGetResponse.class
com\alipay\api\domain\AlipayDataItemLimitPeriodInfo.class
com\alipay\api\domain\KoubeiMarketingDataSmartactivityConfigModel.class
com\alipay\api\internal\util\codec\DecoderException.class
com\alipay\api\request\AlipayOfflineMarketShopPublicBindRequest.class
com\alipay\api\response\AlipayMarketingCampaignDiscountBudgetAppendResponse.class
com\alipay\api\request\AlipayOpenPublicQrcodeCreateRequest.class
com\alipay\api\request\AlipayOfflineMarketShopDiscountQueryRequest.class
com\alipay\api\request\AlipayMobileStdPublicMenuQueryRequest.class
com\alipay\api\response\KoubeiItemExtitemQueryResponse.class
com\alipay\api\domain\ItemInfo.class
com\alipay\api\response\KoubeiMarketingCampaignCrowdBatchqueryResponse.class
com\alipay\api\domain\AlipayOpenPublicLifeMsgRecallModel.class
com\alipay\api\domain\AlipayCommerceTransportOfflinepayRecordVerifyModel.class
com\alipay\api\internal\parser\json\JsonConverter.class
com\alipay\api\response\AlipayOpenPublicLabelUserDeleteResponse.class
com\alipay\api\internal\mapping\Converter.class
com\alipay\api\domain\AlipayOfflineMarketShopQuerydetailModel.class
com\alipay\api\domain\OpenBatch.class
com\alipay\api\request\AlipayOfflineProviderShopactionRecordRequest.class
com\alipay\api\response\AlipayPassSyncAddResponse.class
com\alipay\api\response\AlipayOfflineMarketItemStateResponse.class
com\alipay\api\response\AlipayMarketingCdpAdvertiseCreateResponse.class
com\alipay\api\response\AlipayMarketingCampaignDiscountStatusUpdateResponse.class
com\alipay\api\domain\NewsfeedLabelInfo.class
com\alipay\api\request\KoubeiMarketingCampaignActivityOfflineRequest.class
com\alipay\api\response\AlipayOpenPublicQrcodeCreateResponse.class
com\alipay\api\request\AlipayEcoMycarParkingOrderstatusQueryRequest.class
com\alipay\api\domain\AlipaySecurityRiskDeviceidQueryModel.class
com\alipay\api\request\AlipayZdataassetsMetadataRequest.class
com\alipay\api\request\AlipayOfflineMarketLeadsQrcodeQueryRequest.class
com\alipay\api\domain\ZhimaOpenAppTestPracticeModel.class
com\alipay\api\request\AlipayOpenPublicAccountResetRequest.class
com\alipay\api\request\AlipayOfflineMaterialImageDownloadRequest.class
com\alipay\api\domain\Context.class
com\alipay\api\response\AlipayOpenPublicMessageLabelSendResponse.class
com\alipay\api\request\AlipayMarketingCdpAdvertiseCreateRequest.class
com\alipay\api\domain\AlipayItemLimitPeriodInfo.class
com\alipay\api\domain\ZmWatchListDetail.class
com\alipay\api\response\KoubeiMarketingDataSmartactivityForecastResponse.class
com\alipay\api\domain\AlipayDataItemDescription.class
com\alipay\api\response\AlipayMobilePublicGisGetResponse.class
com\alipay\api\request\AlipayPassTplUpdateRequest.class
com\alipay\api\request\AlipayMarketingCdpAdvertiseReportQueryRequest.class
com\alipay\api\domain\AlipayOpenPublicLabelAddModel.class
com\alipay\api\domain\DateAreaModel.class
com\alipay\api\request\AlipayOfflineProviderStaffUpdateRequest.class
com\alipay\api\response\ZhimaDataFeedbackurlQueryResponse.class
com\alipay\api\request\AlipayCommerceTransportOfflinepayRecordVerifyRequest.class
com\alipay\api\domain\AlipayOfflineSaleleadsContractconfirmModel.class
com\alipay\api\domain\MaintainOrderStatusExtParams.class
com\alipay\api\domain\AlipayBossCsChannelGetccModel.class
com\alipay\api\request\AlipayMsaasPromotionCpainfoCreateRequest.class
com\alipay\api\response\AlipayEcoMycarDataExternalSendResponse.class
com\alipay\api\request\KoubeiMarketingDataCustomreportQueryRequest.class
com\alipay\api\response\AlipayOfflineSaleleadsInfoQuerybypageResponse.class
com\alipay\api\request\AlipayPassTplAddRequest.class
com\alipay\api\domain\AlipayOfflineMarketShopModifyModel.class
com\alipay\api\request\AlipayEcoMycarPromoVoucherVerifyRequest.class
com\alipay\api\domain\AlipayOfflineProviderMonitorLogSyncModel.class
com\alipay\api\response\AlipayMappprodAccountBindingSyncResponse.class
com\alipay\api\domain\ArrangementConditionGroupSelector.class
com\alipay\api\domain\AlipayOpenServicemarketCommodityShopOnlineModel.class
com\alipay\api\request\KoubeiMarketingDataMemberReportQueryRequest.class
com\alipay\api\response\AlipayOfflineMaterialImageQueryResponse.class
com\alipay\api\domain\MarketingCampaignActivityOfflineModel.class
com\alipay\api\response\AlipayEcoMycarTradeRefundResponse.class
com\alipay\api\domain\BudgetInfo.class
com\alipay\api\domain\AlipayEcoMycarOrderStatusQueryModel.class
com\alipay\api\request\KoubeiMemberDataOauthQueryRequest.class
com\alipay\api\response\AlipayMemberCardOpenResponse.class
com\alipay\api\response\AlipayOpenPublicLabelUserCreateResponse.class
com\alipay\api\domain\CardUserInfo.class
com\alipay\api\domain\AlipayOfflineProviderIsvShopActionQueryModel.class
com\alipay\api\domain\AlipayOpenPublicMenuModifyModel.class
com\alipay\api\request\AlipayUserAccountGetRequest.class
com\alipay\api\domain\KoubeiMarketingDataCustomreportCreateModel.class
com\alipay\api\response\AlipayMicropayOrderUnfreezeResponse.class
com\alipay\api\domain\AlipayEcoMycarMaintainOrderStatusUpdateModel.class
com\alipay\api\response\AlipayEcoCplifeBillBatchUploadResponse.class
com\alipay\api\request\AlipayOpenPublicLabelQueryRequest.class
com\alipay\api\request\AlipayOfflineSaleleadsContractconfirmRequest.class
com\alipay\api\internal\parser\xml\XmlConverter$1.class
com\alipay\api\domain\KoubeiMarketingToolPrizesendAuthModel.class
com\alipay\api\response\AlipayMarketingCdpAdvertiseReportQueryResponse.class
com\alipay\api\domain\RoyaltyInfo.class
com\alipay\api\domain\AlipayEcoMycarMaitainDataUpdateModel.class
com\alipay\api\domain\NewsfeedMediaVideoInfo.class
com\alipay\api\domain\AlipayOpenAppCodetesttestModel.class
com\alipay\api\domain\InsAddressee.class
com\alipay\api\response\AlipayPassVerifyQueryResponse.class
com\alipay\api\response\AlipayZdataassetsFcdatalabZdatamergetaskResponse.class
com\alipay\api\response\AlipayMobilePublicStdMockListsmlistApiResponse.class
com\alipay\api\request\ZhimaDataFeedbackurlQueryRequest.class
com\alipay\api\response\AlipayMdataTagGetResponse.class
com\alipay\api\response\AlipayOpenPublicLabelModifyResponse.class
com\alipay\api\response\AlipayMarketingCardOpenResponse.class
com\alipay\api\internal\mapping\Converters.class
com\alipay\api\domain\PaymentSchedule.class
com\alipay\api\domain\AlipayOpenPublicInfoModifyModel.class
com\alipay\sign\Base64.class
com\alipay\api\request\MybankFinanceYulibaoTransHistoryQueryRequest.class
com\alipay\api\domain\MybankFinanceYulibaoPriceQueryModel.class
com\alipay\api\domain\InsCoverage.class
com\alipay\api\response\AlipayInsSceneApplicationQueryResponse.class
com\alipay\api\request\AlipayEcapiprodCreditGetRequest.class
com\alipay\api\request\AlipayMicropayOrderDirectPayRequest.class
com\alipay\api\response\AlipayEcoMycarPromoTicketPushResponse.class
com\alipay\api\domain\InsMktFactorDTO.class
com\alipay\api\domain\MaintainVehicleInfo.class
com\alipay\api\domain\AlipayOfflineMarketProductQuerydetailModel.class
com\alipay\api\response\KoubeiMarketingDataCustomtagSaveResponse.class
com\alipay\api\request\AlipayOpenPublicTemplateMessageGetRequest.class
com\alipay\api\request\AlipayMobilePublicInfoQueryRequest.class
com\alipay\api\domain\ClaimProgress.class
com\alipay\api\response\AlipayTradeCloseResponse.class
com\alipay\api\response\AlipayOfflineMarketShopAlbumBindResponse.class
com\alipay\api\response\AlipayCommerceCityfacilitatorVoucherRefundResponse.class
com\alipay\api\domain\KoubeiMarketingDataCustomreportQueryModel.class
com\alipay\api\response\AlipayPlatformOpenidGetResponse.class
com\alipay\api\response\AlipayOfflineMarketShopDiscountQueryResponse.class
com\alipay\api\request\AlipayEbppPdeductSignQueryRequest.class
com\alipay\api\internal\parser\json\ObjectJsonParser.class
com\alipay\api\domain\FundItemAOPModel.class
com\alipay\api\response\AlipayCommerceMedicalCardQueryResponse.class
com\alipay\api\domain\CreditResult.class
com\alipay\api\response\AlipayMobilePublicMenuUserQueryResponse.class
com\alipay\api\request\AlipayAcquireCloseRequest.class
com\alipay\api\domain\KoubeiMarketingDataMessageDeliverModel.class
com\alipay\api\request\AlipayCommerceCityfacilitatorVoucherUploadRequest.class
com\alipay\api\request\AlipayEbppPdeductSignCancelRequest.class
com\alipay\api\response\AlipayDataDataexchangeSfasdfResponse.class
com\alipay\api\response\KoubeiMarketingDataSmartactivityConfigResponse.class
com\alipay\api\response\AlipayPassTplUpdateResponse.class
com\alipay\api\request\AlipayMobileStdPublicAccountQueryRequest.class
com\alipay\api\response\MybankFinanceYulibaoTransHistoryQueryResponse.class
com\alipay\api\response\AlipayUserGetResponse.class
com\alipay\api\internal\mapping\ApiListField.class
com\alipay\api\response\AlipayMobilePublicTemplateMessageDeleteResponse.class
com\alipay\api\response\AlipayOpenPublicPartnerMenuQueryResponse.class
com\alipay\api\domain\AlipayItemOperationContext.class
com\alipay\api\response\AlipayOfflineProviderStaffUpdateResponse.class
com\alipay\api\domain\CodeNOList.class
com\alipay\api\domain\AlipayTradeQueryModel.class
com\alipay\api\request\AlipayMobilePublicLabelUserAddRequest.class
com\alipay\api\request\AlipayEbppMerchantConfigGetRequest.class
com\alipay\api\response\AlipayOpenPublicPartnerMenuOperateResponse.class
com\alipay\api\request\AlipayMemberCardDeletecardRequest.class
com\alipay\api\response\KoubeiMarketingDataSmartmanagementDiagnoseResponse.class
com\alipay\api\request\KoubeiMarketingDataCustomtagBatchqueryRequest.class
com\alipay\api\response\AlipayTradeCreateResponse.class
com\alipay\api\response\AlipayEcapiprodDrawndnFeerecordQueryResponse.class
com\alipay\api\domain\CampBaseDto.class
com\alipay\api\domain\AlipayOfflineMarketShopCategoryQueryModel.class
com\alipay\api\domain\MerchantApplyResultRecord.class
com\alipay\api\internal\util\AlipayUtils.class
com\alipay\api\response\AlipayTrustUserScoreGetResponse.class
com\alipay\api\request\AlipaySecurityProdAmlriskQueryRequest.class
com\alipay\api\domain\AlipayOpenPublicGisGetModel.class
com\alipay\api\internal\util\json\ExceptionErrorListener.class
com\alipay\api\domain\AlipayEcoMycarStoreProductNotifyModel.class
com\alipay\api\response\AlipayMobilePublicLabelUserAddResponse.class
com\alipay\api\domain\Article.class
com\alipay\api\request\AlipayZdatafrontCommonQueryRequest.class
com\alipay\api\response\AlipayMobilePublicLabelDeleteResponse.class
com\alipay\api\request\MybankFinanceYulibaoAccountQueryRequest.class
com\alipay\api\response\AlipayAssetPointBudgetQueryResponse.class
com\alipay\api\response\AlipayAssetPointBalanceQueryResponse.class
com\alipay\api\domain\ShopInfo.class
com\alipay\api\domain\AlipayMarketingCampaignPromocoreCreateModel.class
com\alipay\api\response\KoubeiMarketingToolPointsUpdateResponse.class
com\alipay\api\request\AlipayOfflineMarketItemCreateRequest.class
com\alipay\api\response\AlipayMobilePublicAppinfoUpdateResponse.class
com\alipay\api\domain\PidShopInfo.class
com\alipay\api\request\AlipayMemberCouponQuerylistRequest.class
com\alipay\api\domain\AlipayOfflineSaleleadsMerchantEquipmentQueryModel.class
com\alipay\api\response\AlipaySecurityRiskHideDeviceidQueryResponse.class
com\alipay\api\domain\ExClientRateVO.class
com\alipay\api\request\AlipayEbppBillPayurlGetRequest.class
com\alipay\api\domain\RecruitInfo.class
com\alipay\api\domain\ConsumeRecordAOPModel.class
com\alipay\api\domain\AlipayPassTemplateAddModel.class
com\alipay\api\response\AlipayPromorulecenterRuleAnalyzeResponse.class
com\alipay\api\domain\AlipayCommerceCityfacilitatorVoucherGetModel.class
com\alipay\api\domain\AlipayOfflineMarketLeadsOpenshopCodeQueryModel.class
com\alipay\api\response\KoubeiMarketingDataMemberReportQueryResponse.class
com\alipay\api\response\KoubeiQualityTestCloudacptItemQueryResponse.class
com\alipay\api\domain\LeadsQueryResponse.class
com\alipay\api\domain\AlipayAssetPointOrderQueryModel.class
com\alipay\api\response\AlipayMobileStdPublicAccountQueryResponse.class
com\alipay\api\response\AlipayOpenAppCodetesttestResponse.class
com\alipay\api\domain\RecruitShopInfo.class
com\alipay\api\request\AlipayEcoMycarParkingParkinglotinfoUpdateRequest.class
com\alipay\api\domain\AlipayMarketingCardTemplateCreateModel.class
com\alipay\api\domain\BenefitGradePoint.class
com\alipay\api\request\AlipayEcoMycarCarlibInfoPushRequest.class
com\alipay\api\response\AlipayTrustUserTokenGetResponse.class
com\alipay\api\request\AlipayZdataassetsFcdatalabZdatamergetaskRequest.class
com\alipay\api\response\AlipayMemberCardDeletecardResponse.class
com\alipay\api\request\AlipayTransferThirdpartyBillCreateRequest.class
com\alipay\api\request\AlipayOfflineMarketingVoucherCreateRequest.class
com\alipay\api\internal\mapping\AlipayFieldMethod.class
com\alipay\api\response\AlipayPcreditHuabeiPromoQueryResponse.class
com\alipay\api\domain\AlipayPassInstanceAddModel.class
com\alipay\api\response\AntMerchantExpandPersonalApplyResponse.class
com\alipay\api\domain\ResetZeroDstCampPrizeModel.class
com\alipay\api\response\KoubeiMarketingCampaignTagsQueryResponse.class
com\alipay\api\request\AlipayPointBalanceGetRequest.class
com\alipay\api\request\AlipayEcoMycarMaintainDataUpdateRequest.class
com\alipay\api\domain\AlipayTradeVendorpayDevicedataUploadModel.class
com\alipay\api\domain\ListListSmMockModel.class
com\alipay\api\response\AlipayOfflineMarketLeadsQrcodeQueryResponse.class
com\alipay\api\response\AlipayEcardEduPublicBindResponse.class
com\alipay\api\request\AlipayOfflineMarketProductBatchqueryRequest.class
com\alipay\api\response\AlipayMobilePublicTemplateMessageQueryResponse.class
com\alipay\api\request\KoubeiQualityTestCloudacptBatchQueryRequest.class
com\alipay\api\request\AlipayMobilePublicMessagePushRequest.class
com\alipay\api\domain\AlipaySecurityProdFacerepoSearchModel.class
com\alipay\api\domain\LabelContext.class
com\alipay\api\response\AlipayOpenPublicTemplateMessageIndustryModifyResponse.class
com\alipay\api\domain\ZhimaAuthInfoAuthqueryModel.class
com\alipay\api\request\AlipayEcoMycarMaintainOrderstatusUpdateRequest.class
com\alipay\api\request\AlipayDataDataserviceBillDownloadurlQueryRequest.class
com\alipay\api\domain\AlipayOpenPublicMessageSingleSendModel.class
com\alipay\api\request\AlipayPassVerifyQueryRequest.class
com\alipay\api\domain\AlipayUserFinanceinfoShareModel.class
com\alipay\api\response\AlipayUserMemberCardUpdateResponse.class
com\alipay\api\response\AlipayMpointprodBenefitDetailGetResponse.class
com\alipay\api\domain\AlipayEbppEbppAlipayEbppPdeductQuerySignInfoModel.class
com\alipay\api\domain\AlipayOpenAuthIndustryPlatformSendRequestModel.class
com\alipay\api\response\AlipayMarketingCampaignActivityOfflineTriggerResponse.class
com\alipay\api\domain\AlipayMsaasSecuritySendcpainfoModel.class
com\alipay\api\request\AlipayMsaasMediarecogVoiceMediaaudioUploadRequest.class
com\alipay\api\domain\KoubeiMarketingDataActivityReportQueryModel.class
com\alipay\api\request\AlipayPlatformUseridGetRequest.class
com\alipay\api\response\AlipayEbppPdeductSignCancelResponse.class
com\alipay\api\domain\KoubeiMarketingDataCustomreportDetailQueryModel.class
com\alipay\api\domain\AlipayHighValueCustomerResult.class
com\alipay\api\domain\AntMerchantExpandMapplyorderQueryModel.class
com\alipay\api\response\AlipayMobilePublicMessageTotalSendResponse.class
com\alipay\api\domain\ShopCategoryInfo.class
com\alipay\api\request\AlipayMobileCodeCreateRequest.class
com\alipay\api\request\AlipayOpenServicemarketOrderNotifyRequest.class
com\alipay\api\request\AlipayOfflineMarketShopAlbumUnbindRequest.class
com\alipay\api\domain\AlipayCommerceCityfacilitatorAlipayScardcenterTicketQueryModel.class
com\alipay\api\response\AlipayOpenServicemarketOrderNotifyResponse.class
com\alipay\api\response\AlipayMarketingCardDeleteResponse.class
com\alipay\api\response\KoubeiQualityTestCloudacptActivityQueryResponse.class
com\alipay\api\request\AlipayOpenPublicLifeMsgRecallRequest.class
com\alipay\api\request\AlipayMobileStdPublicMessageCustomSendRequest.class
com\alipay\api\domain\AlipayUserCreditCard.class
com\alipay\api\domain\CustomTagInfo.class
com\alipay\api\response\KoubeiMarketingDataCustomtagDeleteResponse.class
com\alipay\api\request\AlipayMarketingCampaignDrawcampQueryRequest.class
com\alipay\api\domain\PrizeCustomMenu.class
com\alipay\api\request\AlipayOpenPublicAccountQueryRequest.class
com\alipay\api\request\AlipayOfflineMarketingVoucherOfflineRequest.class
com\alipay\api\internal\parser\xml\ObjectXmlParser.class
com\alipay\api\domain\AlipayCommerceCityfacilitatorVoucherStationqueryModel.class
com\alipay\api\internal\util\codec\BinaryEncoder.class
com\alipay\api\request\AlipayOfflineMarketShopAlbumDeleteRequest.class
com\alipay\api\request\AlipayAcquireQueryRequest.class
com\alipay\api\response\AlipayOpenPublicMessageTotalSendResponse.class
com\alipay\api\response\AlipayOpenPublicMultimediaDownloadProxyResponse.class
com\alipay\api\domain\InsMktCouponConfigDTO.class
com\alipay\api\response\AlipayOfflineMarketingVoucherStatusQueryResponse.class
com\alipay\api\response\AlipayMobilePublicMenuAddResponse.class
com\alipay\api\domain\UseRule.class
com\alipay\api\request\AlipayOpenAppPackagetestRequest.class
com\alipay\api\domain\Coupon.class
com\alipay\api\request\KoubeiMarketingDataCustomreportBatchqueryRequest.class
com\alipay\api\request\AlipayOpenServicemarketOrderItemCompleteRequest.class
com\alipay\api\domain\ProductProvider.class
com\alipay\api\response\AlipayOpenPublicMessageCustomSendResponse.class
com\alipay\api\domain\SubMerchant.class
com\alipay\api\domain\MarketingCdpAdvertiseQueryModel.class
com\alipay\api\domain\CustomerEntity.class
com\alipay\api\response\AlipayOpenPublicFollowBatchqueryResponse.class
com\alipay\api\response\AlipayOfflineMarketShopAssignstaffResponse.class
com\alipay\api\request\AlipayCommerceCityfacilitatorVoucherBatchqueryRequest.class
com\alipay\api\request\AlipayOfflineMarketItemStateRequest.class
com\alipay\api\request\AlipayOfflineMarketProductUsedetailRequest.class
com\alipay\api\request\AlipayCommerceCityfacilitatorVoucherCancelRequest.class
com\alipay\api\response\KoubeiItemExtitemUpdateResponse.class
com\alipay\api\request\AlipayMobilePublicStdMockListsmlistApiRequest.class
com\alipay\api\response\KoubeiQualityTestCloudacptCheckresultSubmitResponse.class
com\alipay\api\domain\FilterTag.class
com\alipay\api\response\AlipayOfflineSaleleadsContractconfirmResponse.class
com\alipay\api\request\AlipayEcoMycarViolationCityPushRequest.class
com\alipay\api\domain\ShopDiscountInfo.class
com\alipay\api\domain\BizOrderQueryResponse.class
com\alipay\api\domain\AlipayOpenAppCommodityOrderItemQueryModel.class
com\alipay\api\response\AlipayMobileStdPublicExpressUserQueryResponse.class
com\alipay\api\request\AlipayOfflineMarketShopCreateRequest.class
com\alipay\api\domain\AlipayOfflineMarketShopdiscountQueryModel.class
com\alipay\api\response\AlipayEcoMycarParkingParkinglotinfoUpdateResponse.class
com\alipay\api\domain\XXXXsdasdasd.class
com\alipay\api\request\AlipayCommerceCityfacilitatorDepositCancelRequest.class
com\alipay\api\response\AlipayEcapiprodDrawndnLendingrecordQueryResponse.class
com\alipay\api\request\AlipayMarketingCampaignDrawcampUpdateRequest.class
com\alipay\api\response\AlipayOpenPublicInfoModifyResponse.class
com\alipay\api\response\AlipayAssetAccountUnbindResponse.class
com\alipay\api\domain\VoucherModifyInfo.class
com\alipay\api\response\AlipayAssetAccountBindResponse.class
com\alipay\api\request\AlipayTradeWapPayRequest.class
com\alipay\api\response\AlipayEcoMycarCarlibInfoPushResponse.class
com\alipay\api\request\KoubeiQualityTestCloudacptActivityQueryRequest.class
com\alipay\api\domain\PromoTool.class
com\alipay\api\response\AlipayOfflineMarketShopPublicUnbindResponse.class
com\alipay\api\request\KoubeiQualityTestCloudacptCheckresultSubmitRequest.class
com\alipay\api\response\AlipayMobileCodeQueryResponse.class
com\alipay\api\response\AlipayOfflineSaleleadsMerchantEquipmentQueryResponse.class
com\alipay\api\domain\EduSourceInfo.class
com\alipay\api\domain\AlipayOpenPublicUserDeleteModel.class
com\alipay\api\request\AlipayEcapiprodDrawndnRepaymentrecordQueryRequest.class
com\alipay\api\request\AlipayMarketingCardTemplateModifyRequest.class
com\alipay\api\request\AlipayMarketingCampaignDiscountOperateRequest.class
com\alipay\api\response\AlipayMemberCardQueryResponse.class
com\alipay\api\response\AlipayMarketingCdpAdvertiseModifyResponse.class
com\alipay\api\request\AlipayMobilePublicTemplateMessageDeleteRequest.class
com\alipay\api\domain\AlipayMarketingCampaignPromocoreWhitelistCreateModel.class
com\alipay\api\domain\OrderItem.class
com\alipay\api\domain\AlipayOpenServicemarketOrderRejectModel.class
com\alipay\api\response\AlipayOpenPublicShortlinkCreateResponse.class
com\alipay\api\domain\DishonestyDetailInfo.class
com\alipay\api\request\ZhimaAuthInfoAuthqueryRequest.class
com\alipay\api\domain\ZhimaDataFeedbackurlQueryModel.class
com\alipay\api\internal\util\json\JSONReader.class
com\alipay\api\request\AlipayMarketingCdpRecommendQueryRequest.class
com\alipay\api\response\AlipayCommerceTransportOfflinepayKeyQueryResponse.class
com\alipay\api\response\AlipayAcquireCreateandpayResponse.class
com\alipay\api\internal\util\AlipayEncrypt.class
com\alipay\api\response\AlipayAccountExrateAllclientrateQueryResponse.class
com\alipay\api\request\AlipayOfflineMarketingVoucherCodeUploadRequest.class
com\alipay\api\domain\AlipayEcoMycarParkingCardqrcodeCreateModel.class
com\alipay\api\request\AlipayDataDataexchangeSfasdfRequest.class
com\alipay\api\request\AlipayZdataserviceUnidataQueryRequest.class
com\alipay\api\request\AlipayOfflineMarketingVoucherStatusQueryRequest.class
com\alipay\api\response\AntMerchantExpandEnterpriseApplyResponse.class
com\alipay\api\request\KoubeiItemExtitemUpdateRequest.class
com\alipay\api\request\AlipayOfflineMarketShopCategoryQueryRequest.class
com\alipay\api\domain\KoubeiMemberDataExtitemQuerypageModel.class
com\alipay\api\domain\AlipayAccountExrateAllclientrateQueryModel.class
com\alipay\api\domain\MerchantSaleLeadsQueryBypageDTO.class
com\alipay\api\domain\NewsfeedMediaImg.class
com\alipay\api\domain\AntMerchantExpandEnterpriseApplyModel.class
com\alipay\api\request\AlipayTradeFastpayRefundQueryRequest.class
com\alipay\api\response\AlipayCommerceCityfacilitatorScriptQueryResponse.class
com\alipay\api\domain\AliTrustRiskIdentify.class
com\alipay\api\domain\AlipayMarketingCdpAdvertiseReportModel.class
com\alipay\api\domain\AlipayMarketingCampaignPromocoreUpdateModel.class
com\alipay\api\request\AlipayOpenPublicLabelCreateRequest.class
com\alipay\api\domain\InsMktObjectDTO.class
com\alipay\api\request\AlipayOpenServicemarketCommodityShopOnlineRequest.class
com\alipay\api\request\AlipayOpenPublicLabelDeleteRequest.class
com\alipay\api\request\AlipayAcquireCancelRequest.class
com\alipay\api\request\AlipayMarketingCardDeleteRequest.class
com\alipay\api\response\MybankFinanceYulibaoPriceQueryResponse.class
com\alipay\api\request\AlipayMobilePublicMessageSingleSendRequest.class
com\alipay\api\request\AlipayAssetAccountUnbindRequest.class
com\alipay\api\domain\UseTime.class
com\alipay\api\domain\MoreInfoDTO.class
com\alipay\api\response\AlipayOpenPublicMessageSingleSendResponse.class
com\alipay\api\domain\AlipayPlatformUseridGetModel.class
com\alipay\api\domain\AlipayOpenPublicLabelDeleteModel.class
com\alipay\api\request\MybankFinanceYulibaoCapitalPurchaseRequest.class
com\alipay\api\response\AlipayOpenAuthTokenAppQueryResponse.class
com\alipay\api\request\AlipayEcoMycarPromoTicketSyncRequest.class
com\alipay\api\domain\PublicLabel.class
com\alipay\api\response\KoubeiItemExtitemBatchqueryResponse.class
com\alipay\api\request\AlipayOpenPublicAccountDeleteRequest.class
com\alipay\api\request\AlipayCommerceCityfacilitatorVoucherRefundRequest.class
com\alipay\api\domain\AlipayAssetPointOrderCreateModel.class
com\alipay\api\response\AlipayPassTplAddResponse.class
com\alipay\api\domain\AlipayCommerceMedicalBindinscardModel.class
com\alipay\api\response\AlipayEcapiprodDrawndnDrawndnlistQueryResponse.class
com\alipay\api\AlipayMobilePublicMultiMediaClient$1.class
com\alipay\api\response\KoubeiMarketingDataIndicatorQueryResponse.class
com\alipay\api\response\AlipayCommerceCityfacilitatorStationQueryResponse.class
com\alipay\api\request\KoubeiMarketingDataCustomreportDeleteRequest.class
com\alipay\api\response\AlipayMarketingCardTemplateCreateResponse.class
com\alipay\api\request\AlipayMobilePublicTemplateMessageGetRequest.class
com\alipay\api\domain\Material.class
com\alipay\api\domain\ReportDataItem.class
com\alipay\api\domain\ProductVOOptions.class
com\alipay\api\response\AlipayOpenPublicMenuQueryResponse.class
com\alipay\api\domain\AlipayOfflineMarketShopAssignstaffModel.class
com\alipay\api\response\AlipayPassFileAddResponse.class
com\alipay\api\request\AlipayCommerceDataSendRequest.class
com\alipay\api\domain\AlipayTradeOrderSettleModel.class
com\alipay\api\domain\AlipayCommerceMedicalCardqueryModel.class
com\alipay\api\response\AlipayEbppBillBatchPayurlGetResponse.class
com\alipay\api\request\AlipayEcoMycarMaintainOrderCreateRequest.class
com\alipay\api\request\AlipayAcquireCreateandpayRequest.class
com\alipay\api\response\AlipayEcoMycarParkingLotbarcodeCreateResponse.class
com\alipay\api\request\AlipayAssetPointBudgetQueryRequest.class
com\alipay\api\response\AlipayMarketingCampaignDiscountOperateResponse.class
com\alipay\api\FileItem.class
com\xianzaishi\trade\pay\weixin\UnifiedorderReturnValue.class
com\alipay\api\response\AlipayMarketingCardTemplateQueryResponse.class
com\alipay\api\request\AlipayCommerceTransportOfflinepayKeyQueryRequest.class
com\alipay\api\domain\AreaInfo.class
com\alipay\api\domain\ConstraintInfo.class
com\alipay\api\response\AlipayOfflineMaterialImageUploadResponse.class
com\alipay\api\domain\AlipayOpenPublicAccountAddModel.class
com\alipay\api\response\AlipayDataDataserviceBillDownloadurlQueryResponse.class
com\alipay\api\request\AlipayOpenPublicLabelUserCreateRequest.class
com\alipay\api\response\KoubeiMarketingCampaignCrowdModifyResponse.class
com\alipay\api\domain\DiscountRandomModel.class
com\alipay\api\AlipayRequest.class
com\alipay\api\request\AlipayUserTradeSearchRequest.class
com\alipay\api\request\AlipayMobilePublicMenuDeleteRequest.class
com\alipay\api\domain\KoubeiMarketingDataCustomtagDeleteModel.class
com\alipay\api\request\KoubeiMarketingCampaignRecruitShopQueryRequest.class
com\alipay\api\domain\RechargeBill.class
com\alipay\api\domain\EquipmentAuthRemoveQueryBypageDTO.class
com\alipay\api\request\AlipayEcoMycarDataserviceViolationinfoShareRequest.class
com\alipay\api\internal\util\AlipaySignature.class
com\alipay\api\request\AlipayMarketingCampaignDiscountBudgetAppendRequest.class
com\alipay\api\domain\AlipayCommerceCityfacilitatorScardcenterTicketCancelModel.class
com\alipay\api\domain\ExtBrand.class
com\alipay\api\domain\AlipayOfflineMarketingVoucherModifyModel.class
com\alipay\api\request\AlipayPlatformOpenidGetRequest.class
com\alipay\api\domain\OpenPromoPrizeRelativeTime.class
com\alipay\api\domain\AlipayMarketingCampaignDstcampQueryModel.class
com\alipay\api\request\KoubeiMarketingDataActivityReportQueryRequest.class
com\xianzaishi\trade\pay\ali\AliPayRequestBuilder.class
com\alipay\util\UtilDate.class
com\alipay\api\response\AlipayMobileStdPublicMessageCustomSendResponse.class
com\alipay\api\domain\AlipayContract.class
com\alipay\api\internal\util\WebUtils.class
com\alipay\api\response\AlipayMobileDeviceinfoDynamicinfoAddResponse.class
com\alipay\api\domain\CustomerTag.class
com\alipay\api\response\AlipayPassTemplateAddResponse.class
com\alipay\api\request\ZhimaCreditWatchlistiiGetRequest.class
com\alipay\api\response\AlipayMobileStdPublicFollowListResponse.class
com\alipay\api\domain\GroupSetting.class
com\alipay\api\request\AlipayOpenPublicMessageSingleSendRequest.class
com\alipay\api\request\AlipayOfflineSaleleadsQuerybyidsRequest.class
com\alipay\api\domain\AlipayDataDataserviceChinaremodelGetModel.class
com\alipay\api\response\KoubeiItemExtitemExistedQueryResponse.class
com\alipay\api\response\AlipayEcoMycarParkingOrderstatusQueryResponse.class
com\alipay\api\request\AlipayMarketingCampaignDiscountWhitelistUpdateRequest.class
com\alipay\api\AlipayMobilePublicMultiMediaDownloadResponse.class
com\alipay\api\response\AlipayZdatafrontDatatransferedFileuploadResponse.class
com\alipay\api\response\AlipayPassSyncUpdateResponse.class
com\alipay\api\request\AlipayCommerceCityfacilitatorVoucherConfirmRequest.class
com\alipay\api\response\AlipayOfflineMarketShopQuerydetailResponse.class
com\alipay\api\request\AlipayEcapiprodDataPutRequest.class
com\alipay\api\response\AlipayMobilePublicMessageCustomSendResponse.class
com\alipay\api\internal\util\json\JSONValidator.class
com\alipay\api\internal\util\AtsUtils.class
com\alipay\api\SignItem.class
com\alipay\api\response\AlipayOpenServicemarketOrderRejectResponse.class
com\alipay\api\response\AlipayMobilePublicMessagespecifyPushResponse.class
com\alipay\api\response\AlipayEcapiprodDataPutResponse.class
com\alipay\api\request\AlipayEcapiprodDrawndnDrawndnlistQueryRequest.class
com\alipay\api\domain\KoubeiMemberDataCategoryQueryModel.class
com\alipay\api\request\AlipayMarketingCardQueryRequest.class
com\alipay\api\domain\CardDomainVO.class
com\alipay\api\domain\ValidationRule.class
com\alipay\api\response\AlipayOpenAppPackagetestResponse.class
com\alipay\api\ResponseParseItem.class
com\alipay\api\request\AlipayOpenPublicTemplateMessageIndustryModifyRequest.class
com\alipay\api\request\AlipayOfflineSaleleadsMerchantEquipmentQueryRequest.class
com\alipay\api\domain\ContentPicture.class
com\alipay\api\domain\AlipayEcoMycarPromoTicketPushModel.class
com\alipay\api\response\AlipayEcoMycarViolationCityPushResponse.class
com\alipay\api\request\AlipayPassSyncUpdateRequest.class
com\alipay\api\request\AlipayMarketingCardOpenRequest.class
com\alipay\api\domain\AlipayOfflineSaleleadsMerchantEquipmentAuthRemoveModel.class
com\alipay\api\domain\AlipayCommerceCityfacilitatorScardcenterFunctionQueryModel.class
com\alipay\sign\RSA.class
com\alipay\api\request\KoubeiMarketingDataCustomreportSaveRequest.class
com\alipay\api\request\AlipayPointOrderAddRequest.class
com\alipay\api\domain\AlipayOfflineMarketShopSummaryBatchqueryModel.class
com\alipay\api\response\AlipayUserTestResponse.class
com\alipay\api\request\AlipayAssetPointOrderCreateRequest.class
com\alipay\api\domain\KoubeiMarketingCampaignCrowdCreateModel.class
com\alipay\api\domain\AlipayItemDescription.class
com\alipay\api\response\AlipayEcoCplifeRepairStatusUpdateResponse.class
com\alipay\api\response\AlipayOfflineMarketShopAlbumModifyResponse.class
com\alipay\api\response\AlipayEcoMycarMaintainDataUpdateResponse.class
com\alipay\api\response\KoubeiMarketingDataActivityReportQueryResponse.class
com\alipay\api\domain\AlipayOpenPublicLabelUserAddModel.class
com\alipay\api\request\AlipayOfflineProviderEquipmentAuthRemoveRequest.class
com\alipay\api\response\AlipayZdataserviceUnidataQueryResponse.class
com\alipay\api\request\AlipayPassTplContentUpdateRequest.class
com\alipay\api\domain\DelayInfo.class
com\alipay\api\request\AlipayOfflineProviderEquipmentAuthQuerybypageRequest.class
com\alipay\api\domain\RandomDiscountDstCampPrizeModel.class
com\xianzaishi\trade\pay\weixin\WeiXinPayConfig.class
com\alipay\api\response\AntMerchantExpandImageUploadResponse.class
com\alipay\api\request\AlipayOpenPublicFollowBatchqueryRequest.class
com\alipay\api\response\AlipayMobilePublicMenuDeleteResponse.class
com\alipay\api\response\AlipayEbppBillAddResponse.class
com\alipay\api\request\AlipayMemberCardOpenRequest.class
com\alipay\api\request\AlipayMarketingCdpAdvertiseModifyRequest.class
com\alipay\api\domain\AntMerchantExpandPersonalApplyModel.class
com\alipay\api\request\AlipayMarketingCdpAdvertiseOperateRequest.class
com\alipay\api\domain\DstCampRuleModel.class
com\alipay\api\request\AlipayDataDataserviceUserlevelZrankGetRequest.class
com\alipay\api\response\AlipayOfflineMarketLeadsBatchqueryResponse.class
com\alipay\api\response\AlipayMarketingCampaignDiscountQueryResponse.class
com\alipay\api\response\AlipayOpenAuthIndustryPlatformCreateTokenResponse.class
com\alipay\api\request\AlipayPassTemplateUpdateRequest.class
com\alipay\api\response\AlipayZmscoreZrankGetResponse.class
com\alipay\api\request\AlipayCommerceMedicalCardQueryRequest.class
com\alipay\api\domain\AlipayOpenPublicMessageLabelSendModel.class
com\alipay\api\request\AlipayEbppPdeductPayRequest.class
com\alipay\api\response\KoubeiMarketingDataMessageDeliverResponse.class
com\alipay\api\domain\SingleFundDetailItemAOPModel.class
com\alipay\api\domain\MybankFinanceYulibaoCapitalPurchaseModel.class
com\alipay\api\domain\ClauseTerm.class
com\alipay\api\domain\AlipayOfflineMarketingVoucherOfflineModel.class
com\alipay\api\response\AlipayPassTemplateUpdateResponse.class
com\alipay\api\request\AlipayMarketingCampaignDrawcampTriggerRequest.class
com\alipay\api\domain\KoubeiMarketingDataCustomreportDeleteModel.class
com\alipay\api\request\KoubeiMarketingCampaignActivityModifyRequest.class
com\alipay\api\response\AlipayEbppBillPayurlGetResponse.class
com\alipay\api\domain\AlipayOfflineMarketReportGetModel.class
com\alipay\api\domain\AlipayDataBillDownloadurlNoauthGetModel.class
com\alipay\api\response\AlipayOfflineProviderEquipmentAuthRemoveResponse.class
com\alipay\api\response\AlipayOfflineProviderEquipmentAuthQuerybypageResponse.class
com\alipay\api\response\AlipayMobileBeaconDeviceDeleteResponse.class
com\alipay\api\request\AlipayMdataTagGetRequest.class
com\alipay\api\AlipayObject.class
com\alipay\api\domain\InsCertificateApiDTO.class
com\alipay\api\response\AlipayMobilePublicLabelUpdateResponse.class
com\alipay\api\response\AlipayBossProdArrangementOfflineQueryResponse.class
com\alipay\api\response\KoubeiMemberDataOauthQueryResponse.class
com\alipay\api\request\AlipayDataDataserviceSdfsdfRequest.class
com\alipay\api\response\AlipayTradeQueryResponse.class
com\alipay\api\domain\KoubeiMarketingCampaignRecruitShopQueryModel.class
com\alipay\api\response\AlipayMobilePublicLabelQueryResponse.class
com\alipay\api\domain\MedicalHospitalInfo.class
com\alipay\api\domain\IndividualInfo.class
com\alipay\api\domain\AssetAccountResult.class
com\alipay\api\response\AlipayOpenPublicLifeMsgRecallResponse.class
com\alipay\api\response\AlipayEcoMycarMaintainOrderCreateResponse.class
com\alipay\api\domain\ArticlePicture.class
com\alipay\api\domain\AlipayOfflineMarketItemStateModel.class
com\alipay\api\request\AlipayOfflineMarketProductQuerydetailRequest.class
com\alipay\api\request\AlipayMobilePublicMenuGetRequest.class
com\alipay\api\internal\util\json\JSONWriter.class
com\alipay\api\domain\OpenItem.class
com\alipay\api\response\AlipayOfflineMarketShopCreateResponse.class
com\alipay\api\response\AlipayDataDataserviceChinaremodelQueryResponse.class
com\alipay\api\domain\TemplateColumnInfoDTO.class
com\alipay\api\response\AlipayMarketingCdpRecommendQueryResponse.class
com\alipay\api\domain\ExtCategory.class
com\alipay\api\domain\CustomReportCondition.class
com\alipay\api\response\AlipayUserAccountSearchResponse.class
com\alipay\api\response\AlipayOpenPublicLabelUserQueryResponse.class
com\alipay\api\domain\ISVLogSync.class
com\alipay\api\domain\AlipayInsAutoSavecarModel.class
com\alipay\api\domain\KoubeiMarketingToolPointsUpdateModel.class
com\alipay\api\response\AlipayCommerceCityfacilitatorVoucherGenerateResponse.class
com\alipay\api\domain\PointCard.class
com\alipay\api\request\AlipayMobileBeaconDeviceAddRequest.class
com\alipay\api\response\AlipayOpenPublicMenuCreateResponse.class
com\alipay\api\request\AlipayMobilePublicShortlinkCreateRequest.class
com\alipay\api\request\AlipayOpenPublicMenuModifyRequest.class
com\alipay\api\request\AlipayMicropayOrderConfirmpayurlGetRequest.class
com\alipay\api\domain\YLBProfitDetailInfo.class
com\alipay\api\response\AlipayEbppPdeductPayResponse.class
com\alipay\api\domain\GetRuleInfo.class
com\alipay\api\internal\util\StreamUtil$SynchronizedOutputStream.class
com\alipay\api\domain\NewsfeedMediaGiftInfo.class
com\alipay\api\domain\MarketingCdpAdvertiseOperateModel.class
com\alipay\api\response\AlipayCommerceCityfacilitatorVoucherConfirmResponse.class
com\alipay\api\domain\AlipayPcreditLoanRefundCreateModel.class
com\alipay\api\request\AlipayMobilePublicAppinfoUpdateRequest.class
com\alipay\api\domain\StaffDTO.class
com\alipay\api\response\AlipayOpenPublicThirdCustomerServiceResponse.class
com\alipay\api\domain\MybankFinanceYulibaoCapitalRansomModel.class
com\alipay\api\domain\NewsfeedLocationInfo.class
com\alipay\api\request\AlipayMarketingCampaignDiscountWhitelistQueryRequest.class
com\alipay\api\request\AlipayTradeAppPayRequest.class
com\alipay\api\domain\AlipayMarketingCdpAdvertiseModifyModel.class
com\alipay\api\domain\MedicalHospitalDeptInfo.class
com\alipay\api\request\AlipayEcoCplifeBillSyncRequest.class
com\alipay\api\domain\Paragraph.class
com\alipay\api\response\AlipayMobilePublicMenuUserUpdateResponse.class
com\alipay\api\request\AlipayZmscoreZrankGetRequest.class
com\alipay\api\response\KoubeiMarketingDataCustomreportBatchqueryResponse.class
com\alipay\api\response\AlipayOfflineMarketShopPublicBindResponse.class
com\alipay\api\request\AlipayEbppBillSearchRequest.class
com\alipay\api\request\AlipayOpenPublicShortlinkCreateRequest.class
com\alipay\api\request\AlipayMobilePublicLabelUserDeleteRequest.class
com\alipay\api\domain\TemplateFieldRuleDTO.class
com\alipay\api\response\AlipayZdataassetsEasyserviceResponse.class
com\alipay\api\response\AlipayMobilePublicMockListsmlistApiResponse.class
com\alipay\api\response\AlipayZdatafrontCommonQueryResponse.class
com\alipay\api\domain\AlipayMarketingCampaignDiscountBudgetQueryModel.class
com\alipay\api\response\AlipayCommerceCityfacilitatorDepositQueryResponse.class
com\alipay\api\domain\AlipayOpenPublicQrcodeCreateModel.class
com\alipay\api\request\AlipayMobilePublicLabelUpdateRequest.class
com\alipay\api\request\AlipayDataDataserviceChinaremodelQueryRequest.class
com\alipay\api\domain\RepaymentRecords.class
com\alipay\api\response\AlipayOpenPublicLifeAccountCreateResponse.class
com\alipay\api\domain\SaleProduct.class
com\alipay\api\response\AlipayUserAccountUseridBatchqueryResponse.class
com\alipay\api\domain\AlipayMsaasFaudioingestVoiceReportcontentModel.class
com\alipay\api\domain\AlipayEcoMycarCarmanTradeRefundModel.class
com\alipay\api\domain\AliTrustScore.class
com\alipay\api\domain\KoubeiMarketingCampaignActivityQueryModel.class
com\alipay\api\response\KoubeiMarketingCampaignCrowdCreateResponse.class
com\alipay\api\response\AlipayMarketingCdpAdvertiseOperateResponse.class
com\alipay\api\request\KoubeiMarketingCampaignActivityBatchqueryRequest.class
com\alipay\api\request\AlipayMarketingCampaignDiscountStatusUpdateRequest.class
com\alipay\api\request\AlipayEbppBillGetRequest.class
com\xianzaishi\trade\pay\swiftpass\PayModel.class
com\alipay\api\domain\AlipayEcoMycarOrderRefundModel.class
com\alipay\api\response\AlipayMobilePublicInfoModifyResponse.class
com\alipay\api\request\AlipayCommerceMedicalInstcardCreateandpayRequest.class
com\alipay\api\response\AlipayAccountExrateRatequeryResponse.class
com\xianzaishi\trade\pay\weixin\MobilePayModel.class
com\alipay\api\request\AlipayPassSyncAddRequest.class
com\alipay\api\request\AlipayZdataassetsEasyserviceRequest.class
com\alipay\api\domain\StdPublicBindAccount.class
com\alipay\api\domain\AlipayEcoMycarViolationInfoPushModel.class
